win_lut_tc/tb_window_lut.vcd
$date
	Wed Nov 19 00:59:09 2025
$end
$version
	Icarus Verilog
$end
$timescale
	1ps
$end
$scope module tb_Window_lut $end
$var wire 16 ! dout_re [15:0] $end
$var wire 16 " dout_im [15:0] $end
$var wire 1 # dout_en $end
$var wire 1 $ data_full $end
$var wire 1 % data_empty $end
$var wire 9 & buf_count [8:0] $end
$var parameter 32 ' ADDR_WIDTH $end
$var parameter 41 ( BUF_DEPTH $end
$var parameter 32 ) CLK_PERIOD $end
$var parameter 32 * HOP_LEN $end
$var parameter 32 + N_FFT $end
$var parameter 32 , WIDTH $end
$var parameter 32 - WIN_LEN $end
$var reg 1 . clk $end
$var reg 1 / den $end
$var reg 16 0 din_im [15:0] $end
$var reg 16 1 din_re [15:0] $end
$var reg 1 2 dout_en_q $end
$var reg 1 3 rst_n $end
$var integer 32 4 frame_count [31:0] $end
$var integer 32 5 frame_len_violation_count [31:0] $end
$var integer 32 6 frame_log_file [31:0] $end
$var integer 32 7 frame_sample_counter [31:0] $end
$var integer 32 8 hop_violation_count [31:0] $end
$var integer 32 9 input_file [31:0] $end
$var integer 32 : output_file [31:0] $end
$var integer 32 ; prev_frame_start_sample [31:0] $end
$var integer 32 < sample_count [31:0] $end
$var integer 32 = scan_result [31:0] $end
$scope module dut $end
$var wire 1 . clk $end
$var wire 1 / den $end
$var wire 16 > din_im [15:0] $end
$var wire 16 ? din_re [15:0] $end
$var wire 1 # dout_en $end
$var wire 16 @ dout_im [15:0] $end
$var wire 16 A dout_re [15:0] $end
$var wire 1 3 rst_n $end
$var wire 16 B mu_b_re [15:0] $end
$var wire 16 C mu_a_re [15:0] $end
$var wire 16 D data_mu_re [15:0] $end
$var wire 32 E data_mu_in [31:0] $end
$var wire 16 F data_mu_im [15:0] $end
$var wire 1 $ data_full $end
$var wire 1 % data_empty $end
$var wire 32 G data_buf_in [31:0] $end
$var wire 16 H coe_mu_in [15:0] $end
$var wire 1 I buf_rd_jump $end
$var wire 1 J buf_rd_en $end
$var wire 9 K buf_count [8:0] $end
$var parameter 32 L ADDR_WIDTH $end
$var parameter 32 M BUF_DEPTH $end
$var parameter 32 N HOP_LEN $end
$var parameter 32 O N_FFT $end
$var parameter 32 P WIDTH $end
$var parameter 32 Q WIN_LEN $end
$var reg 1 R dout_en_r $end
$var reg 1 S frm_init $end
$var reg 9 T r_idx_ptr [8:0] $end
$scope module CIRCULAR_BUFFER_inst $end
$var wire 1 . clk $end
$var wire 32 U din [31:0] $end
$var wire 1 S frm_init $end
$var wire 1 J rd_en $end
$var wire 1 I rd_jump $end
$var wire 1 3 rst_n $end
$var wire 1 / wr_en $end
$var wire 1 $ full $end
$var wire 1 % empty $end
$var wire 32 V dout [31:0] $end
$var wire 1 W almost_empty $end
$var parameter 32 X ADDR_WIDTH $end
$var parameter 32 Y DEPTH $end
$var parameter 32 Z HOP_LENGTH $end
$var parameter 64 [ WIDTH $end
$var parameter 32 \ WIN_LENGTH $end
$var reg 9 ] count_r [8:0] $end
$var reg 9 ^ init_read_ptr [8:0] $end
$var reg 9 _ init_write_ptr [8:0] $end
$var reg 9 ` read_ptr [8:0] $end
$var reg 9 a write_addr [8:0] $end
$var reg 9 b write_ptr [8:0] $end
$scope function is_almost_empty $end
$var reg 9 c count_r [8:0] $end
$upscope $end
$scope function isempty $end
$var reg 9 d init_write_ptr [8:0] $end
$var reg 9 e read_ptr [8:0] $end
$var reg 9 f write_ptr [8:0] $end
$upscope $end
$scope function isfull $end
$var reg 9 g init_read_ptr [8:0] $end
$var reg 9 h read_ptr [8:0] $end
$var reg 9 i write_ptr [8:0] $end
$upscope $end
$scope module S2SRAM_inst $end
$var wire 1 . clk $end
$var wire 9 j rd_addr [8:0] $end
$var wire 1 J rd_en $end
$var wire 1 3 rst_n $end
$var wire 9 k wr_addr [8:0] $end
$var wire 32 l wr_data [31:0] $end
$var wire 1 / wr_en $end
$var parameter 32 m ADDR_WIDTH $end
$var parameter 32 n DEPTH $end
$var parameter 64 o WIDTH $end
$var reg 32 p rd_data [31:0] $end
$upscope $end
$upscope $end
$scope module HANN_WIN_inst $end
$var wire 9 q addr [8:0] $end
$var wire 1 . clk $end
$var wire 1 3 rst_n $end
$var parameter 32 r ADDR_WIDTH $end
$var parameter 32 s N_FFT $end
$var parameter 32 t WIN_LEN $end
$var reg 16 u win_coe_out [15:0] $end
$upscope $end
$scope module MU_inst $end
$var wire 16 v a_im [15:0] $end
$var wire 16 w a_re [15:0] $end
$var wire 16 x b_im [15:0] $end
$var wire 16 y b_re [15:0] $end
$var wire 33 z re_full [32:0] $end
$var wire 16 { m_re [15:0] $end
$var wire 16 | m_im [15:0] $end
$var wire 33 } im_full [32:0] $end
$var wire 32 ~ arbr [31:0] $end
$var wire 32 !" arbi [31:0] $end
$var wire 32 "" aibr [31:0] $end
$var wire 32 #" aibi [31:0] $end
$var parameter 32 $" WIDTH $end
$scope function round_shift_sat_q15 $end
$upscope $end
$upscope $end
$upscope $end
$upscope $end
$enddefinitions $end
$comment Show the parameter values. $end
$dumpall
b10000 $"
b111100000 t
b1000000000 s
b1001 r
b100000 o
b1000000000 n
b1001 m
b111100000 \
b100000 [
b10100000 Z
b1000000000 Y
b1001 X
b111100000 Q
b10000 P
b1000000000 O
b10100000 N
b1000000000 M
b1001 L
b111100000 -
b10000 ,
b1000000000 +
b10100000 *
b1010 )
b1000000000 (
b1001 '
$end
#0
$dumpvars
b0 #"
bx ""
bx !"
bx ~
bx }
bx |
bx {
bx z
bx y
b0 x
bx w
b0 v
bx u
bx q
bx p
b0 l
bx k
bx j
bx i
bx h
bx g
bx f
bx e
bx d
bx c
bx b
bx a
bx `
bx _
bx ^
bx ]
0W
bx V
b0 U
bx T
xS
xR
bx K
xJ
xI
bx H
b0 G
bx F
bx E
bx D
bx C
bx B
bx A
bx @
b0 ?
b0 >
bx =
b0 <
b0 ;
b10000000000000000000000000000011 :
b0 9
b0 8
b0 7
b10000000000000000000000000000100 6
b0 5
b0 4
13
02
b0 1
b0 0
0/
0.
bx &
x%
x$
x#
bx "
bx !
$end
#5000
b0 !
b0 A
b0 D
b0 {
b0 "
b0 @
b0 F
b0 |
0J
b0 z
b0 }
b0 ~
b0 !"
b0 C
b0 w
1%
1W
b0 c
0$
b0 g
b0 h
b0 i
0I
b0 ""
b0 B
b0 y
0#
b0 E
b0 V
b0 p
b0 a
b0 k
b0 b
b0 `
b0 j
b0 &
b0 K
b0 ]
b0 _
b0 ^
b0 H
b0 u
0S
b0 T
b0 q
0R
x2
03
1.
#10000
0.
#15000
02
1.
#20000
0.
#25000
1.
#30000
0.
#35000
1.
#40000
0.
#45000
1.
#50000
0.
#55000
1.
13
#60000
0.
#65000
1.
#70000
0.
#75000
1J
b1 c
b1 i
0%
b1 &
b1 K
b1 ]
b1 b
b1 <
b10 =
b1110011001100110000000000000000 G
b1110011001100110000000000000000 U
b1110011001100110000000000000000 l
b111001100110011 1
b111001100110011 ?
1.
1/
b10000000000000000000000000000101 9
#80000
0.
#85000
b100001010011101 C
b100001010011101 w
b1 h
b10 i
1#
b1000010100111010000000000000000 E
b1000010100111010000000000000000 V
b1000010100111010000000000000000 p
b1 a
b1 k
b10 b
b1 `
b1 j
b1 T
b1 q
1R
b10 <
b1000010100111010000000000000000 G
b1000010100111010000000000000000 U
b1000010100111010000000000000000 l
b100001010011101 1
b100001010011101 ?
1.
#90000
0.
#95000
b1111010110100101 C
b1111010110100101 w
b111111111111111111111010110100101 z
b11111111111111111111010110100101 ~
b1 B
b1 y
b10 h
b11 i
b10 T
b10 q
b1 H
b1 u
b10 `
b10 j
b10 a
b10 k
b11 b
b11110101101001010000000000000000 E
b11110101101001010000000000000000 V
b11110101101001010000000000000000 p
12
b11 <
b11110101101001010000000000000000 G
b11110101101001010000000000000000 U
b11110101101001010000000000000000 l
b1111010110100101 1
b1111010110100101 ?
1.
#100000
0.
#105000
b1111111111111111 !
b1111111111111111 A
b1111111111111111 D
b1111111111111111 {
b1110010111100000 C
b1110010111100000 w
b11 h
b100 i
b111111111111111110110001101000000 z
b11111111111111110110001101000000 ~
b110 B
b110 y
b11100101111000000000000000000000 E
b11100101111000000000000000000000 V
b11100101111000000000000000000000 p
b11 a
b11 k
b100 b
b11 `
b11 j
b110 H
b110 u
b11 T
b11 q
b100 <
b11100101111000000000000000000000 G
b11100101111000000000000000000000 U
b11100101111000000000000000000000 l
b1110010111100000 1
b1110010111100000 ?
1.
#110000
0.
#115000
b0 !
b0 A
b0 D
b0 {
b1111110000001011 C
b1111110000001011 w
b111111111111111111100110010001111 z
b11111111111111111100110010001111 ~
b1101 B
b1101 y
b100 h
b101 i
b100 T
b100 q
b1101 H
b1101 u
b100 `
b100 j
b100 a
b100 k
b101 b
b11111100000010110000000000000000 E
b11111100000010110000000000000000 V
b11111100000010110000000000000000 p
b101 <
b11111100000010110000000000000000 G
b11111100000010110000000000000000 U
b11111100000010110000000000000000 l
b1111110000001011 1
b1111110000001011 ?
1.
#120000
0.
#125000
b0 C
b0 w
b0 !
b0 A
b0 D
b0 {
b101 h
b110 i
b0 z
b0 ~
b10111 B
b10111 y
b0 E
b0 V
b0 p
b101 a
b101 k
b110 b
b101 `
b101 j
b10111 H
b10111 u
b101 T
b101 q
b110 <
b0 G
b0 U
b0 l
b0 1
b0 ?
1.
#130000
0.
#135000
b1 !
b1 A
b1 D
b1 {
b1000101001111111 z
b1000101001111111 ~
b1111110101 C
b1111110101 w
b100011 B
b100011 y
b110 h
b111 i
b110 T
b110 q
b100011 H
b100011 u
b110 `
b110 j
b110 a
b110 k
b111 b
b11111101010000000000000000 E
b11111101010000000000000000 V
b11111101010000000000000000 p
b111 <
b11111101010000000000000000 G
b11111101010000000000000000 U
b11111101010000000000000000 l
b1111110101 1
b1111110101 ?
1.
#140000
0.
#145000
b1101000100000 C
b1101000100000 w
b1010 !
b1010 A
b1010 D
b1010 {
b111 h
b1000 i
b1010011010001100000 z
b1010011010001100000 ~
b110011 B
b110011 y
b11010001000000000000000000000 E
b11010001000000000000000000000 V
b11010001000000000000000000000 p
b111 a
b111 k
b1000 b
b111 `
b111 j
b110011 H
b110011 u
b111 T
b111 q
b1000 <
b11010001000000000000000000000 G
b11010001000000000000000000000 U
b11010001000000000000000000000 l
b1101000100000 1
b1101000100000 ?
1.
#150000
0.
#155000
b110 !
b110 A
b110 D
b110 {
b101001011011 C
b101001011011 w
b101100101010000111 z
b101100101010000111 ~
b1000101 B
b1000101 y
b1000 h
b1001 i
b1000 T
b1000 q
b1000101 H
b1000101 u
b1000 `
b1000 j
b1000 a
b1000 k
b1001 b
b1010010110110000000000000000 E
b1010010110110000000000000000 V
b1010010110110000000000000000 p
b1001 <
b1010010110110000000000000000 G
b1010010110110000000000000000 U
b1010010110110000000000000000 l
b101001011011 1
b101001011011 ?
1.
#160000
0.
#165000
b1011110101100011 C
b1011110101100011 w
b1111111111010001 !
b1111111111010001 A
b1111111111010001 D
b1111111111010001 {
b1001 h
b1010 i
b111111111111010001001010011001110 z
b11111111111010001001010011001110 ~
b1011010 B
b1011010 y
b10111101011000110000000000000000 E
b10111101011000110000000000000000 V
b10111101011000110000000000000000 p
b1001 a
b1001 k
b1010 b
b1001 `
b1001 j
b1011010 H
b1011010 u
b1001 T
b1001 q
b1010 <
b10111101011000110000000000000000 G
b10111101011000110000000000000000 U
b10111101011000110000000000000000 l
b1011110101100011 1
b1011110101100011 ?
1.
#170000
0.
#175000
b1111111110011001 !
b1111111110011001 A
b1111111110011001 D
b1111111110011001 {
b1000110011001101 C
b1000110011001101 w
b111111111110011001011001101001010 z
b11111111110011001011001101001010 ~
b1110010 B
b1110010 y
b1010 h
b1011 i
b1010 T
b1010 q
b1110010 H
b1110010 u
b1010 `
b1010 j
b1010 a
b1010 k
b1011 b
b10001100110011010000000000000000 E
b10001100110011010000000000000000 V
b10001100110011010000000000000000 p
b1011 <
b10001100110011010000000000000000 G
b10001100110011010000000000000000 U
b10001100110011010000000000000000 l
b1000110011001101 1
b1000110011001101 ?
1.
#180000
0.
#185000
b1011110101100011 C
b1011110101100011 w
b1111111110110111 !
b1111111110110111 A
b1111111110110111 D
b1111111110110111 {
b1011 h
b1100 i
b111111111110110110100111110000111 z
b11111111110110110100111110000111 ~
b10001101 B
b10001101 y
b10111101011000110000000000000000 E
b10111101011000110000000000000000 V
b10111101011000110000000000000000 p
b1011 a
b1011 k
b1100 b
b1011 `
b1011 j
b10001101 H
b10001101 u
b1011 T
b1011 q
b1100 <
b10111101011000110000000000000000 G
b10111101011000110000000000000000 U
b10111101011000110000000000000000 l
b1011110101100011 1
b1011110101100011 ?
1.
#190000
0.
#195000
b1110 !
b1110 A
b1110 D
b1110 {
b101001011011 C
b101001011011 w
b1101110000001101110 z
b1101110000001101110 ~
b10101010 B
b10101010 y
b1100 h
b1101 i
b1100 T
b1100 q
b10101010 H
b10101010 u
b1100 `
b1100 j
b1100 a
b1100 k
b1101 b
b1010010110110000000000000000 E
b1010010110110000000000000000 V
b1010010110110000000000000000 p
b1101 <
b1010010110110000000000000000 G
b1010010110110000000000000000 U
b1010010110110000000000000000 l
b101001011011 1
b101001011011 ?
1.
#200000
0.
#205000
b1101000100000 C
b1101000100000 w
b101001 !
b101001 A
b101001 D
b101001 {
b1101 h
b1110 i
b101001011011101100000 z
b101001011011101100000 ~
b11001011 B
b11001011 y
b11010001000000000000000000000 E
b11010001000000000000000000000 V
b11010001000000000000000000000 p
b1101 a
b1101 k
b1110 b
b1101 `
b1101 j
b11001011 H
b11001011 u
b1101 T
b1101 q
b1110 <
b11010001000000000000000000000 G
b11010001000000000000000000000 U
b11010001000000000000000000000 l
b1101000100000 1
b1101000100000 ?
1.
#210000
0.
#215000
b111 !
b111 A
b111 D
b111 {
b1111110101 C
b1111110101 w
b111010110111000110 z
b111010110111000110 ~
b11101110 B
b11101110 y
b1110 h
b1111 i
b1110 T
b1110 q
b11101110 H
b11101110 u
b1110 `
b1110 j
b1110 a
b1110 k
b1111 b
b11111101010000000000000000 E
b11111101010000000000000000 V
b11111101010000000000000000 p
b1111 <
b11111101010000000000000000 G
b11111101010000000000000000 U
b11111101010000000000000000 l
b1111110101 1
b1111110101 ?
1.
#220000
0.
#225000
b0 C
b0 w
b0 !
b0 A
b0 D
b0 {
b1111 h
b10000 i
b0 z
b0 ~
b100010011 B
b100010011 y
b0 E
b0 V
b0 p
b1111 a
b1111 k
b10000 b
b1111 `
b1111 j
b100010011 H
b100010011 u
b1111 T
b1111 q
b10000 <
b0 G
b0 U
b0 l
b0 1
b0 ?
1.
#230000
0.
#235000
b1111111111110110 !
b1111111111110110 A
b1111111111110110 D
b1111111111110110 {
b111111111111110110001110110010100 z
b11111111111110110001110110010100 ~
b1111110000001011 C
b1111110000001011 w
b100111100 B
b100111100 y
b10000 h
b10001 i
b10000 T
b10000 q
b100111100 H
b100111100 u
b10000 `
b10000 j
b10000 a
b10000 k
b10001 b
b11111100000010110000000000000000 E
b11111100000010110000000000000000 V
b11111100000010110000000000000000 p
b10001 <
b11111100000010110000000000000000 G
b11111100000010110000000000000000 U
b11111100000010110000000000000000 l
b1111110000001011 1
b1111110000001011 ?
1.
#240000
0.
#245000
b1110010111100000 C
b1110010111100000 w
b1111111110110111 !
b1111111110110111 A
b1111111110110111 D
b1111111110110111 {
b10001 h
b10010 i
b111111111110110110100001100000000 z
b11111111110110110100001100000000 ~
b101101000 B
b101101000 y
b11100101111000000000000000000000 E
b11100101111000000000000000000000 V
b11100101111000000000000000000000 p
b10001 a
b10001 k
b10010 b
b10001 `
b10001 j
b101101000 H
b101101000 u
b10001 T
b10001 q
b10010 <
b11100101111000000000000000000000 G
b11100101111000000000000000000000 U
b11100101111000000000000000000000 l
b1110010111100000 1
b1110010111100000 ?
1.
#250000
0.
#255000
b1111111111011111 !
b1111111111011111 A
b1111111111011111 D
b1111111111011111 {
b1111010110100101 C
b1111010110100101 w
b111111111111011111001001110101110 z
b11111111111011111001001110101110 ~
b110010110 B
b110010110 y
b10010 h
b10011 i
b10010 T
b10010 q
b110010110 H
b110010110 u
b10010 `
b10010 j
b10010 a
b10010 k
b10011 b
b11110101101001010000000000000000 E
b11110101101001010000000000000000 V
b11110101101001010000000000000000 p
b10011 <
b11110101101001010000000000000000 G
b11110101101001010000000000000000 U
b11110101101001010000000000000000 l
b1111010110100101 1
b1111010110100101 ?
1.
#260000
0.
#265000
b100001010011101 C
b100001010011101 w
b11101101 !
b11101101 A
b11101101 D
b11101101 {
b10011 h
b10100 i
b11101100110010100001011 z
b11101100110010100001011 ~
b111000111 B
b111000111 y
b1000010100111010000000000000000 E
b1000010100111010000000000000000 V
b1000010100111010000000000000000 p
b10011 a
b10011 k
b10100 b
b10011 `
b10011 j
b111000111 H
b111000111 u
b10011 T
b10011 q
b10100 <
b1000010100111010000000000000000 G
b1000010100111010000000000000000 U
b1000010100111010000000000000000 l
b100001010011101 1
b100001010011101 ?
1.
#270000
0.
#275000
b111000111 !
b111000111 A
b111000111 D
b111000111 {
b111001100110011 C
b111001100110011 w
b111000111011001011001110 z
b111000111011001011001110 ~
b111111010 B
b111111010 y
b10100 h
b10101 i
b10100 T
b10100 q
b111111010 H
b111111010 u
b10100 `
b10100 j
b10100 a
b10100 k
b10101 b
b1110011001100110000000000000000 E
b1110011001100110000000000000000 V
b1110011001100110000000000000000 p
b10101 <
b1110011001100110000000000000000 G
b1110011001100110000000000000000 U
b1110011001100110000000000000000 l
b111001100110011 1
b111001100110011 ?
1.
#280000
0.
#285000
b100001010011101 C
b100001010011101 w
b100100100 !
b100100100 A
b100100100 D
b100100100 {
b10101 h
b10110 i
b100100011111101000001101 z
b100100011111101000001101 ~
b1000110001 B
b1000110001 y
b1000010100111010000000000000000 E
b1000010100111010000000000000000 V
b1000010100111010000000000000000 p
b10101 a
b10101 k
b10110 b
b10101 `
b10101 j
b1000110001 H
b1000110001 u
b10101 T
b10101 q
b10110 <
b1000010100111010000000000000000 G
b1000010100111010000000000000000 U
b1000010100111010000000000000000 l
b100001010011101 1
b100001010011101 ?
1.
#290000
0.
#295000
b1111111111001110 !
b1111111111001110 A
b1111111111001110 D
b1111111111001110 {
b1111010110100101 C
b1111010110100101 w
b111111111111001110000000001010010 z
b11111111111001110000000001010010 ~
b1001101010 B
b1001101010 y
b10110 h
b10111 i
b10110 T
b10110 q
b1001101010 H
b1001101010 u
b10110 `
b10110 j
b10110 a
b10110 k
b10111 b
b11110101101001010000000000000000 E
b11110101101001010000000000000000 V
b11110101101001010000000000000000 p
b10111 <
b11110101101001010000000000000000 G
b11110101101001010000000000000000 U
b11110101101001010000000000000000 l
b1111010110100101 1
b1111010110100101 ?
1.
#300000
0.
#305000
b1110010111100000 C
b1110010111100000 w
b1111111101110110 !
b1111111101110110 A
b1111111101110110 D
b1111111101110110 {
b10111 h
b11000 i
b111111111101110101110100101100000 z
b11111111101110101110100101100000 ~
b1010100101 B
b1010100101 y
b11100101111000000000000000000000 E
b11100101111000000000000000000000 V
b11100101111000000000000000000000 p
b10111 a
b10111 k
b11000 b
b10111 `
b10111 j
b1010100101 H
b1010100101 u
b10111 T
b10111 q
b11000 <
b11100101111000000000000000000000 G
b11100101111000000000000000000000 U
b11100101111000000000000000000000 l
b1110010111100000 1
b1110010111100000 ?
1.
#310000
0.
#315000
b1111111111101001 !
b1111111111101001 A
b1111111111101001 D
b1111111111101001 {
b1111110000001011 C
b1111110000001011 w
b111111111111101001000111111001100 z
b11111111111101001000111111001100 ~
b1011100100 B
b1011100100 y
b11000 h
b11001 i
b11000 T
b11000 q
b1011100100 H
b1011100100 u
b11000 `
b11000 j
b11000 a
b11000 k
b11001 b
b11111100000010110000000000000000 E
b11111100000010110000000000000000 V
b11111100000010110000000000000000 p
b11001 <
b11111100000010110000000000000000 G
b11111100000010110000000000000000 U
b11111100000010110000000000000000 l
b1111110000001011 1
b1111110000001011 ?
1.
#320000
0.
#325000
b0 C
b0 w
b0 !
b0 A
b0 D
b0 {
b11001 h
b11010 i
b0 z
b0 ~
b1100100101 B
b1100100101 y
b0 E
b0 V
b0 p
b11001 a
b11001 k
b11010 b
b11001 `
b11001 j
b1100100101 H
b1100100101 u
b11001 T
b11001 q
b11010 <
b0 G
b0 U
b0 l
b0 1
b0 ?
1.
#330000
0.
#335000
b11011 !
b11011 A
b11011 D
b11011 {
b11010111111001111101 z
b11010111111001111101 ~
b1111110101 C
b1111110101 w
b1101101001 B
b1101101001 y
b11010 h
b11011 i
b11010 T
b11010 q
b1101101001 H
b1101101001 u
b11010 `
b11010 j
b11010 a
b11010 k
b11011 b
b11111101010000000000000000 E
b11111101010000000000000000 V
b11111101010000000000000000 p
b11011 <
b11111101010000000000000000 G
b11111101010000000000000000 U
b11111101010000000000000000 l
b1111110101 1
b1111110101 ?
1.
#340000
0.
#345000
b1101000100000 C
b1101000100000 w
b11000001 !
b11000001 A
b11000001 D
b11000001 {
b11011 h
b11100 i
b11000000101011000000000 z
b11000000101011000000000 ~
b1110110000 B
b1110110000 y
b11010001000000000000000000000 E
b11010001000000000000000000000 V
b11010001000000000000000000000 p
b11011 a
b11011 k
b11100 b
b11011 `
b11011 j
b1110110000 H
b1110110000 u
b11011 T
b11011 q
b11100 <
b11010001000000000000000000000 G
b11010001000000000000000000000 U
b11010001000000000000000000000 l
b1101000100000 1
b1101000100000 ?
1.
#350000
0.
#355000
b1010010 !
b1010010 A
b1010010 D
b1010010 {
b101001011011 C
b101001011011 w
b1010010010001110000011 z
b1010010010001110000011 ~
b1111111001 B
b1111111001 y
b11100 h
b11101 i
b11100 T
b11100 q
b1111111001 H
b1111111001 u
b11100 `
b11100 j
b11100 a
b11100 k
b11101 b
b1010010110110000000000000000 E
b1010010110110000000000000000 V
b1010010110110000000000000000 p
b11101 <
b1010010110110000000000000000 G
b1010010110110000000000000000 U
b1010010110110000000000000000 l
b101001011011 1
b101001011011 ?
1.
#360000
0.
#365000
b1011110101100011 C
b1011110101100011 w
b1111110111000111 !
b1111110111000111 A
b1111110111000111 D
b1111110111000111 {
b11101 h
b11110 i
b111111110111000111001011110101111 z
b11111110111000111001011110101111 ~
b10001000101 B
b10001000101 y
b10111101011000110000000000000000 E
b10111101011000110000000000000000 V
b10111101011000110000000000000000 p
b11101 a
b11101 k
b11110 b
b11101 `
b11101 j
b10001000101 H
b10001000101 u
b11101 T
b11101 q
b11110 <
b10111101011000110000000000000000 G
b10111101011000110000000000000000 U
b10111101011000110000000000000000 l
b1011110101100011 1
b1011110101100011 ?
1.
#370000
0.
#375000
b1111101111100010 !
b1111101111100010 A
b1111101111100010 D
b1111101111100010 {
b1000110011001101 C
b1000110011001101 w
b111111101111100010000110110110111 z
b11111101111100010000110110110111 ~
b10010010011 B
b10010010011 y
b11110 h
b11111 i
b11110 T
b11110 q
b10010010011 H
b10010010011 u
b11110 `
b11110 j
b11110 a
b11110 k
b11111 b
b10001100110011010000000000000000 E
b10001100110011010000000000000000 V
b10001100110011010000000000000000 p
b11111 <
b10001100110011010000000000000000 G
b10001100110011010000000000000000 U
b10001100110011010000000000000000 l
b1000110011001101 1
b1000110011001101 ?
1.
#380000
0.
#385000
b1011110101100011 C
b1011110101100011 w
b1111110101110100 !
b1111110101110100 A
b1111110101110100 D
b1111110101110100 {
b11111 h
b100000 i
b111111110101110100011100000101100 z
b11111110101110100011100000101100 ~
b10011100100 B
b10011100100 y
b10111101011000110000000000000000 E
b10111101011000110000000000000000 V
b10111101011000110000000000000000 p
b11111 a
b11111 k
b100000 b
b11111 `
b11111 j
b10011100100 H
b10011100100 u
b11111 T
b11111 q
b100000 <
b10111101011000110000000000000000 G
b10111101011000110000000000000000 U
b10111101011000110000000000000000 l
b1011110101100011 1
b1011110101100011 ?
1.
#390000
0.
#395000
b1101100 !
b1101100 A
b1101100 D
b1101100 {
b101001011011 C
b101001011011 w
b1101100000101011101000 z
b1101100000101011101000 ~
b10100111000 B
b10100111000 y
b100000 h
b100001 i
b100000 T
b100000 q
b10100111000 H
b10100111000 u
b100000 `
b100000 j
b100000 a
b100000 k
b100001 b
b1010010110110000000000000000 E
b1010010110110000000000000000 V
b1010010110110000000000000000 p
b100001 <
b1010010110110000000000000000 G
b1010010110110000000000000000 U
b1010010110110000000000000000 l
b101001011011 1
b101001011011 ?
1.
#400000
0.
#405000
b1101000100000 C
b1101000100000 w
b100100010 !
b100100010 A
b100100010 D
b100100010 {
b100001 h
b100010 i
b100100010001110111000000 z
b100100010001110111000000 ~
b10110001110 B
b10110001110 y
b11010001000000000000000000000 E
b11010001000000000000000000000 V
b11010001000000000000000000000 p
b100001 a
b100001 k
b100010 b
b100001 `
b100001 j
b10110001110 H
b10110001110 u
b100001 T
b100001 q
b100010 <
b11010001000000000000000000000 G
b11010001000000000000000000000 U
b11010001000000000000000000000 l
b1101000100000 1
b1101000100000 ?
1.
#410000
0.
#415000
b101111 !
b101111 A
b101111 D
b101111 {
b1111110101 C
b1111110101 w
b101110101101100010011 z
b101110101101100010011 ~
b10111100111 B
b10111100111 y
b100010 h
b100011 i
b100010 T
b100010 q
b10111100111 H
b10111100111 u
b100010 `
b100010 j
b100010 a
b100010 k
b100011 b
b11111101010000000000000000 E
b11111101010000000000000000 V
b11111101010000000000000000 p
b100011 <
b11111101010000000000000000 G
b11111101010000000000000000 U
b11111101010000000000000000 l
b1111110101 1
b1111110101 ?
1.
#420000
0.
#425000
b0 C
b0 w
b0 !
b0 A
b0 D
b0 {
b100011 h
b100100 i
b0 z
b0 ~
b11001000011 B
b11001000011 y
b0 E
b0 V
b0 p
b100011 a
b100011 k
b100100 b
b100011 `
b100011 j
b11001000011 H
b11001000011 u
b100011 T
b100011 q
b100100 <
b0 G
b0 U
b0 l
b0 1
b0 ?
1.
#430000
0.
#435000
b1111111111001100 !
b1111111111001100 A
b1111111111001100 D
b1111111111001100 {
b111111111111001011100010011101011 z
b11111111111001011100010011101011 ~
b1111110000001011 C
b1111110000001011 w
b11010100001 B
b11010100001 y
b100100 h
b100101 i
b100100 T
b100100 q
b11010100001 H
b11010100001 u
b100100 `
b100100 j
b100100 a
b100100 k
b100101 b
b11111100000010110000000000000000 E
b11111100000010110000000000000000 V
b11111100000010110000000000000000 p
b100101 <
b11111100000010110000000000000000 G
b11111100000010110000000000000000 U
b11111100000010110000000000000000 l
b1111110000001011 1
b1111110000001011 ?
1.
#440000
0.
#445000
b1110010111100000 C
b1110010111100000 w
b1111111010010010 !
b1111111010010010 A
b1111111010010010 D
b1111111010010010 {
b100101 h
b100110 i
b111111111010010010000010111100000 z
b11111111010010010000010111100000 ~
b11100000001 B
b11100000001 y
b11100101111000000000000000000000 E
b11100101111000000000000000000000 V
b11100101111000000000000000000000 p
b100101 a
b100101 k
b100110 b
b100101 `
b100101 j
b11100000001 H
b11100000001 u
b100101 T
b100101 q
b100110 <
b11100101111000000000000000000000 G
b11100101111000000000000000000000 U
b11100101111000000000000000000000 l
b1110010111100000 1
b1110010111100000 ?
1.
#450000
0.
#455000
b1111111101100111 !
b1111111101100111 A
b1111111101100111 D
b1111111101100111 {
b1111010110100101 C
b1111010110100101 w
b111111111101100110111011101110100 z
b11111111101100110111011101110100 ~
b11101100100 B
b11101100100 y
b100110 h
b100111 i
b100110 T
b100110 q
b11101100100 H
b11101100100 u
b100110 `
b100110 j
b100110 a
b100110 k
b100111 b
b11110101101001010000000000000000 E
b11110101101001010000000000000000 V
b11110101101001010000000000000000 p
b100111 <
b11110101101001010000000000000000 G
b11110101101001010000000000000000 U
b11110101101001010000000000000000 l
b1111010110100101 1
b1111010110100101 ?
1.
#460000
0.
#465000
b100001010011101 C
b100001010011101 w
b10000001110 !
b10000001110 A
b10000001110 D
b10000001110 {
b100111 h
b101000 i
b10000001101101101011100010 z
b10000001101101101011100010 ~
b11111001010 B
b11111001010 y
b1000010100111010000000000000000 E
b1000010100111010000000000000000 V
b1000010100111010000000000000000 p
b100111 a
b100111 k
b101000 b
b100111 `
b100111 j
b11111001010 H
b11111001010 u
b100111 T
b100111 q
b101000 <
b1000010100111010000000000000000 G
b1000010100111010000000000000000 U
b1000010100111010000000000000000 l
b100001010011101 1
b100001010011101 ?
1.
#470000
0.
#475000
b11101100000 !
b11101100000 A
b11101100000 D
b11101100000 {
b111001100110011 C
b111001100110011 w
b11101100000001011111110110 z
b11101100000001011111110110 ~
b100000110010 B
b100000110010 y
b101000 h
b101001 i
b101000 T
b101000 q
b100000110010 H
b100000110010 u
b101000 `
b101000 j
b101000 a
b101000 k
b101001 b
b1110011001100110000000000000000 E
b1110011001100110000000000000000 V
b1110011001100110000000000000000 p
b101001 <
b1110011001100110000000000000000 G
b1110011001100110000000000000000 U
b1110011001100110000000000000000 l
b111001100110011 1
b111001100110011 ?
1.
#480000
0.
#485000
b100001010011101 C
b100001010011101 w
b10001111011 !
b10001111011 A
b10001111011 D
b10001111011 {
b101001 h
b101010 i
b10001111010111111110101100 z
b10001111010111111110101100 ~
b100010011100 B
b100010011100 y
b1000010100111010000000000000000 E
b1000010100111010000000000000000 V
b1000010100111010000000000000000 p
b101001 a
b101001 k
b101010 b
b101001 `
b101001 j
b100010011100 H
b100010011100 u
b101001 T
b101001 q
b101010 <
b1000010100111010000000000000000 G
b1000010100111010000000000000000 U
b1000010100111010000000000000000 l
b100001010011101 1
b100001010011101 ?
1.
#490000
0.
