win_lut_tc/tb_window_lut.vcd
$date
	Thu Nov 13 10:38:49 2025
$end
$version
	Icarus Verilog
$end
$timescale
	1ps
$end
$scope module tb_Window_lut $end
$var wire 16 ! dout_re [15:0] $end
$var wire 16 " dout_im [15:0] $end
$var wire 1 # dout_en $end
$var wire 1 $ data_full $end
$var parameter 32 % CLK_PERIOD $end
$var parameter 32 & HOP_LEN $end
$var parameter 32 ' N_FFT $end
$var parameter 32 ( WIDTH $end
$var parameter 32 ) WIN_LEN $end
$var reg 1 * clk $end
$var reg 1 + den $end
$var reg 16 , din_im [15:0] $end
$var reg 16 - din_re [15:0] $end
$var reg 1 . rst_n $end
$var integer 32 / frame_count [31:0] $end
$var integer 32 0 input_file [31:0] $end
$var integer 32 1 output_file [31:0] $end
$var integer 32 2 sample_count [31:0] $end
$var integer 32 3 scan_result [31:0] $end
$scope module dut $end
$var wire 1 * clk $end
$var wire 1 + den $end
$var wire 16 4 din_im [15:0] $end
$var wire 16 5 din_re [15:0] $end
$var wire 1 # dout_en $end
$var wire 16 6 dout_im [15:0] $end
$var wire 16 7 dout_re [15:0] $end
$var wire 1 . rst_n $end
$var wire 10 8 ptr_dist [9:0] $end
$var wire 10 9 pesudo_rptr [9:0] $end
$var wire 16 : mu_a_re [15:0] $end
$var wire 32 ; data_sram_in [31:0] $end
$var wire 16 < data_mu_re [15:0] $end
$var wire 32 = data_mu_in [31:0] $end
$var wire 16 > data_mu_im [15:0] $end
$var wire 16 ? coe_mu_in [15:0] $end
$var parameter 32 @ HOP_LEN $end
$var parameter 32 A N_FFT $end
$var parameter 32 B N_FFT_WIDTH $end
$var parameter 32 C WIDTH $end
$var parameter 32 D WIN_LEN $end
$var parameter 32 E WIN_LEN_WIDTH $end
$var reg 1 $ data_full $end
$var reg 9 F r_coe_ptr [8:0] $end
$var reg 9 G r_data_ptr [8:0] $end
$var reg 9 H w_data_ptr [8:0] $end
$scope module DATA_BUFF $end
$var wire 1 * clk $end
$var wire 1 I cs $end
$var wire 32 J din [31:0] $end
$var wire 9 K r_addr [8:0] $end
$var wire 1 . rstn $end
$var wire 9 L w_addr [8:0] $end
$var wire 1 + we $end
$var parameter 41 M ADDR_DEPTH $end
$var parameter 32 N ADDR_WIDTH $end
$var parameter 64 O DATA_WIDTH $end
$var reg 32 P dout [31:0] $end
$var integer 32 Q i [31:0] $end
$upscope $end
$scope module HANN_WIN_inst $end
$var wire 9 R addr [8:0] $end
$var wire 1 * clk $end
$var wire 1 . rst_n $end
$var parameter 32 S ADDR_WIDTH $end
$var parameter 32 T N_FFT $end
$var reg 16 U win_coe_out [15:0] $end
$upscope $end
$scope module MU_inst $end
$var wire 16 V a_im [15:0] $end
$var wire 16 W a_re [15:0] $end
$var wire 16 X b_im [15:0] $end
$var wire 16 Y b_re [15:0] $end
$var wire 16 Z sc_arbr [15:0] $end
$var wire 16 [ sc_arbi [15:0] $end
$var wire 16 \ sc_aibr [15:0] $end
$var wire 16 ] sc_aibi [15:0] $end
$var wire 16 ^ m_re [15:0] $end
$var wire 16 _ m_im [15:0] $end
$var wire 32 ` arbr [31:0] $end
$var wire 32 a arbi [31:0] $end
$var wire 32 b aibr [31:0] $end
$var wire 32 c aibi [31:0] $end
$var parameter 32 d WIDTH $end
$upscope $end
$upscope $end
$upscope $end
$enddefinitions $end
$comment Show the parameter values. $end
$dumpall
b10000 d
b1000000000 T
b1001 S
b100000 O
b1001 N
b1000000000 M
b1001 E
b111100000 D
b10000 C
b1001 B
b1000000000 A
b10100000 @
b111100000 )
b10000 (
b1000000000 '
b10100000 &
b1010 %
$end
#0
$dumpvars
b0 c
bx b
bx a
bx `
bx _
bx ^
b0 ]
bx \
bx [
bx Z
bx Y
b0 X
bx W
b0 V
bx U
bx R
bx Q
bx P
bx L
bx K
b0 J
1I
bx H
bx G
bx F
bx ?
bx >
bx =
bx <
b0 ;
bx :
bx 9
bx 8
bx 7
bx 6
b0 5
b0 4
bx 3
b0 2
b10000000000000000000000000000011 1
bx 0
b0 /
1.
b0 -
b0 ,
0+
0*
x$
0#
bx "
bx !
$end
#5000
b0 \
b1011000000 9
0$
bx =
bx P
b0 b
b0 ?
b0 U
b0 Y
b0 F
b0 R
b0 8
b0 G
b0 K
b0 H
b0 L
b1000000000 Q
0.
1*
#10000
0*
#15000
b0 !
b0 7
b0 <
b0 ^
b0 Z
b0 "
b0 6
b0 >
b0 _
b0 [
b0 `
b0 a
b0 :
b0 W
b0 =
b0 P
b1000000000 Q
1*
#20000
0*
#25000
b1000000000 Q
1*
#30000
0*
#35000
b1000000000 Q
1*
#40000
0*
#45000
b1000000000 Q
1*
#50000
0*
#55000
1*
1.
#60000
0*
#65000
1*
#70000
0*
#75000
b100001010011101 :
b100001010011101 W
b1011000001 9
b1000010100111010000000000000000 =
b1000010100111010000000000000000 P
b1 G
b1 K
b1 F
b1 R
b0 8
b1 H
b1 L
1#
1*
b10 2
b10 3
b1000010100111010000000000000000 ;
b1000010100111010000000000000000 J
b100001010011101 -
b100001010011101 5
1+
b10000000000000000000000000000100 0
#80000
0*
#85000
b1011000010 9
b100001010011101 `
b1 ?
b1 U
b1 Y
b10 G
b10 K
b10 F
b10 R
b0 8
b10 H
b10 L
b11 2
b11110101101001010000000000000000 ;
b11110101101001010000000000000000 J
b1111010110100101 -
b1111010110100101 5
1*
#90000
0*
#95000
b1110010111100000 :
b1110010111100000 W
b1111111111111110 !
b1111111111111110 7
b1111111111111110 <
b1111111111111110 ^
b1111111111111110 Z
b1011000011 9
b11100101111000000000000000000000 =
b11100101111000000000000000000000 P
b11 G
b11 K
b11 F
b11 R
b0 8
b11 H
b11 L
b11111111111111110111110101100000 `
b101 ?
b101 U
b101 Y
b100 2
b11100101111000000000000000000000 ;
b11100101111000000000000000000000 J
b1110010111100000 -
b1110010111100000 5
1*
#100000
0*
#105000
b1111111111111101 !
b1111111111111101 7
b1111111111111101 <
b1111111111111101 ^
b1111111111111101 Z
b1011000100 9
b11111111111111101110000010100000 `
b1011 ?
b1011 U
b1011 Y
b100 G
b100 K
b100 F
b100 R
b0 8
b100 H
b100 L
b101 2
b11111100000010110000000000000000 ;
b11111100000010110000000000000000 J
b1111110000001011 -
b1111110000001011 5
1*
#110000
0*
#115000
b0 :
b0 W
b0 !
b0 7
b0 <
b0 ^
b0 Z
b1011000101 9
b0 =
b0 P
b101 G
b101 K
b101 F
b101 R
b0 8
b101 H
b101 L
b0 `
b10100 ?
b10100 U
b10100 Y
b110 2
b0 ;
b0 J
b0 -
b0 5
1*
#120000
0*
#125000
b1011000110 9
b11111 ?
b11111 U
b11111 Y
b110 G
b110 K
b110 F
b110 R
b0 8
b110 H
b110 L
b111 2
b11111101010000000000000000 ;
b11111101010000000000000000 J
b1111110101 -
b1111110101 5
1*
#130000
0*
#135000
b1001 !
b1001 7
b1001 <
b1001 ^
b1001 Z
b1001001011110100000 `
b1101000100000 :
b1101000100000 W
b1011000111 9
b11010001000000000000000000000 =
b11010001000000000000000000000 P
b111 G
b111 K
b111 F
b111 R
b0 8
b111 H
b111 L
b101101 ?
b101101 U
b101101 Y
b1000 2
b11010001000000000000000000000 ;
b11010001000000000000000000000 J
b1101000100000 -
b1101000100000 5
1*
#140000
0*
#145000
b1100 !
b1100 7
b1100 <
b1100 ^
b1100 Z
b1011001000 9
b1100011100110100000 `
b111101 ?
b111101 U
b111101 Y
b1000 G
b1000 K
b1000 F
b1000 R
b0 8
b1000 H
b1000 L
b1001 2
b1010010110110000000000000000 ;
b1010010110110000000000000000 J
b101001011011 -
b101001011011 5
1*
#150000
0*
#155000
b1011110101100011 :
b1011110101100011 W
b1111111111010110 !
b1111111111010110 7
b1111111111010110 <
b1111111111010110 ^
b1111111111010110 Z
b1011001001 9
b10111101011000110000000000000000 =
b10111101011000110000000000000000 P
b1001 G
b1001 K
b1001 F
b1001 R
b0 8
b1001 H
b1001 L
b11111111111010110111000110001101 `
b1001111 ?
b1001111 U
b1001111 Y
b1010 2
b10111101011000110000000000000000 ;
b10111101011000110000000000000000 J
b1011110101100011 -
b1011110101100011 5
1*
#160000
0*
#165000
b1111111111001011 !
b1111111111001011 7
b1111111111001011 <
b1111111111001011 ^
b1111111111001011 Z
b1011001010 9
b11111111111001011111101010101100 `
b1100100 ?
b1100100 U
b1100100 Y
b1010 G
b1010 K
b1010 F
b1010 R
b0 8
b1010 H
b1010 L
b1011 2
b10001100110011010000000000000000 ;
b10001100110011010000000000000000 J
b1000110011001101 -
b1000110011001101 5
1*
#170000
0*
#175000
b1111111110111111 !
b1111111110111111 7
b1111111110111111 <
b1111111110111111 ^
b1111111110111111 Z
b1011001011 9
b1011 G
b1011 K
b1011 F
b1011 R
b0 8
b1011 H
b1011 L
b11111111110111111011101111110100 `
b1111100 ?
b1111100 U
b1111100 Y
b1100 2
b10111101011000110000000000000000 ;
b10111101011000110000000000000000 J
b1011110101100011 -
b1011110101100011 5
1*
#180000
0*
#185000
b1111111110110001 !
b1111111110110001 7
b1111111110110001 <
b1111111110110001 ^
b1111111110110001 Z
b1011001100 9
b11111111110110001111100000000010 `
b10010110 ?
b10010110 U
b10010110 Y
b1100 G
b1100 K
b1100 F
b1100 R
b0 8
b1100 H
b1100 L
b1101 2
b1010010110110000000000000000 ;
b1010010110110000000000000000 J
b101001011011 -
b101001011011 5
1*
#190000
0*
#195000
b1101000100000 :
b1101000100000 W
b100100 !
b100100 7
b100100 <
b100100 ^
b100100 Z
b1011001101 9
b11010001000000000000000000000 =
b11010001000000000000000000000 P
b1101 G
b1101 K
b1101 F
b1101 R
b0 8
b1101 H
b1101 L
b100100010101001000000 `
b10110010 ?
b10110010 U
b10110010 Y
b1110 2
b11010001000000000000000000000 ;
b11010001000000000000000000000 J
b1101000100000 -
b1101000100000 5
1*
#200000
0*
#205000
b101010 !
b101010 7
b101010 <
b101010 ^
b101010 Z
b1011001110 9
b101010101010000100000 `
b11010001 ?
b11010001 U
b11010001 Y
b1110 G
b1110 K
b1110 F
b1110 R
b0 8
b1110 H
b1110 L
b1111 2
b11111101010000000000000000 ;
b11111101010000000000000000 J
b1111110101 -
b1111110101 5
1*
#210000
0*
#215000
b0 :
b0 W
b0 !
b0 7
b0 <
b0 ^
b0 Z
b1011001111 9
b0 =
b0 P
b1111 G
b1111 K
b1111 F
b1111 R
b0 8
b1111 H
b1111 L
b0 `
b11110010 ?
b11110010 U
b11110010 Y
b10000 2
b0 ;
b0 J
b0 -
b0 5
1*
#220000
0*
#225000
b1011010000 9
b100010110 ?
b100010110 U
b100010110 Y
b10000 G
b10000 K
b10000 F
b10000 R
b0 8
b10000 H
b10000 L
b10001 2
b11111100000010110000000000000000 ;
b11111100000010110000000000000000 J
b1111110000001011 -
b1111110000001011 5
1*
#230000
0*
#235000
b1111111110111111 !
b1111111110111111 7
b1111111110111111 <
b1111111110111111 ^
b1111111110111111 Z
b11111111110111111100000010000000 `
b1110010111100000 :
b1110010111100000 W
b1011010001 9
b11100101111000000000000000000000 =
b11100101111000000000000000000000 P
b10001 G
b10001 K
b10001 F
b10001 R
b0 8
b10001 H
b10001 L
b100111100 ?
b100111100 U
b100111100 Y
b10010 2
b11100101111000000000000000000000 ;
b11100101111000000000000000000000 J
b1110010111100000 -
b1110010111100000 5
1*
#240000
0*
#245000
b1111111110110111 !
b1111111110110111 7
b1111111110110111 <
b1111111110110111 ^
b1111111110110111 Z
b1011010010 9
b11111111110110111001000101100000 `
b101100101 ?
b101100101 U
b101100101 Y
b10010 G
b10010 K
b10010 F
b10010 R
b0 8
b10010 H
b10010 L
b10011 2
b11110101101001010000000000000000 ;
b11110101101001010000000000000000 J
b1111010110100101 -
b1111010110100101 5
1*
#250000
0*
#255000
b100001010011101 :
b100001010011101 W
b11010000 !
b11010000 7
b11010000 <
b11010000 ^
b11010000 Z
b1011010011 9
b1000010100111010000000000000000 =
b1000010100111010000000000000000 P
b10011 G
b10011 K
b10011 F
b10011 R
b0 8
b10011 H
b10011 L
b11010000001010101010000 `
b110010000 ?
b110010000 U
b110010000 Y
b10100 2
b1000010100111010000000000000000 ;
b1000010100111010000000000000000 J
b100001010011101 -
b100001010011101 5
1*
#260000
0*
#265000
b11100111 !
b11100111 7
b11100111 <
b11100111 ^
b11100111 Z
b1011010100 9
b11100111100101011101001 `
b110111101 ?
b110111101 U
b110111101 Y
b10100 G
b10100 K
b10100 F
b10100 R
b0 8
b10100 H
b10100 L
b10101 2
b1110011001100110000000000000000 ;
b1110011001100110000000000000000 J
b111001100110011 -
b111001100110011 5
1*
#270000
0*
#275000
b100000000 !
b100000000 7
b100000000 <
b100000000 ^
b100000000 Z
b1011010101 9
b10101 G
b10101 K
b10101 F
b10101 R
b0 8
b10101 H
b10101 L
b100000000100100001011001 `
b111101101 ?
b111101101 U
b111101101 Y
b10110 2
b1000010100111010000000000000000 ;
b1000010100111010000000000000000 J
b100001010011101 -
b100001010011101 5
1*
#280000
0*
#285000
b100011010 !
b100011010 7
b100011010 <
b100011010 ^
b100011010 Z
b1011010110 9
b100011010100101100000011 `
b1000011111 ?
b1000011111 U
b1000011111 Y
b10110 G
b10110 K
b10110 F
b10110 R
b0 8
b10110 H
b10110 L
b10111 2
b11110101101001010000000000000000 ;
b11110101101001010000000000000000 J
b1111010110100101 -
b1111010110100101 5
1*
#290000
0*
#295000
b1110010111100000 :
b1110010111100000 W
b1111111110000110 !
b1111111110000110 7
b1111111110000110 <
b1111111110000110 ^
b1111111110000110 Z
b1011010111 9
b11100101111000000000000000000000 =
b11100101111000000000000000000000 P
b10111 G
b10111 K
b10111 F
b10111 R
b0 8
b10111 H
b10111 L
b11111111110000110010110110000000 `
b1001010100 ?
b1001010100 U
b1001010100 Y
b11000 2
b11100101111000000000000000000000 ;
b11100101111000000000000000000000 J
b1110010111100000 -
b1110010111100000 5
1*
#300000
0*
#305000
b1111111101111011 !
b1111111101111011 7
b1111111101111011 <
b1111111101111011 ^
b1111111101111011 Z
b1011011000 9
b11111111101111011001000010100000 `
b1010001011 ?
b1010001011 U
b1010001011 Y
b11000 G
b11000 K
b11000 F
b11000 R
b0 8
b11000 H
b11000 L
b11001 2
b11111100000010110000000000000000 ;
b11111100000010110000000000000000 J
b1111110000001011 -
b1111110000001011 5
1*
#310000
0*
#315000
b0 :
b0 W
b0 !
b0 7
b0 <
b0 ^
b0 Z
b1011011001 9
b0 =
b0 P
b11001 G
b11001 K
b11001 F
b11001 R
b0 8
b11001 H
b11001 L
b0 `
b1011000100 ?
b1011000100 U
b1011000100 Y
b11010 2
b0 ;
b0 J
b0 -
b0 5
1*
#320000
0*
#325000
b1011011010 9
b1100000000 ?
b1100000000 U
b1100000000 Y
b11010 G
b11010 K
b11010 F
b11010 R
b0 8
b11010 H
b11010 L
b11011 2
b11111101010000000000000000 ;
b11111101010000000000000000 J
b1111110101 -
b1111110101 5
1*
#330000
0*
#335000
b10101001 !
b10101001 7
b10101001 <
b10101001 ^
b10101001 Z
b10101001011001111000000 `
b1101000100000 :
b1101000100000 W
b1011011011 9
b11010001000000000000000000000 =
b11010001000000000000000000000 P
b11011 G
b11011 K
b11011 F
b11011 R
b0 8
b11011 H
b11011 L
b1100111110 ?
b1100111110 U
b1100111110 Y
b11100 2
b11010001000000000000000000000 ;
b11010001000000000000000000000 J
b1101000100000 -
b1101000100000 5
1*
#340000
0*
#345000
b10110110 !
b10110110 7
b10110110 <
b10110110 ^
b10110110 Z
b1011011100 9
b10110110101010111100000 `
b1101111111 ?
b1101111111 U
b1101111111 Y
b11100 G
b11100 K
b11100 F
b11100 R
b0 8
b11100 H
b11100 L
b11101 2
b1010010110110000000000000000 ;
b1010010110110000000000000000 J
b101001011011 -
b101001011011 5
1*
#350000
0*
#355000
b1011110101100011 :
b1011110101100011 W
b1111111000001011 !
b1111111000001011 7
b1111111000001011 <
b1111111000001011 ^
b1111111000001011 Z
b1011011101 9
b10111101011000110000000000000000 =
b10111101011000110000000000000000 P
b11101 G
b11101 K
b11101 F
b11101 R
b0 8
b11101 H
b11101 L
b11111111000001011111000010100011 `
b1111000001 ?
b1111000001 U
b1111000001 Y
b11110 2
b10111101011000110000000000000000 ;
b10111101011000110000000000000000 J
b1011110101100011 -
b1011110101100011 5
1*
#360000
0*
#365000
b1111110111100111 !
b1111110111100111 7
b1111110111100111 <
b1111110111100111 ^
b1111110111100111 Z
b1011011110 9
b11111110111100111011100110110101 `
b10000000111 ?
b10000000111 U
b10000000111 Y
b11110 G
b11110 K
b11110 F
b11110 R
b0 8
b11110 H
b11110 L
b11111 2
b10001100110011010000000000000000 ;
b10001100110011010000000000000000 J
b1000110011001101 -
b1000110011001101 5
1*
#370000
0*
#375000
b1111110111000010 !
b1111110111000010 7
b1111110111000010 <
b1111110111000010 ^
b1111110111000010 Z
b1011011111 9
b11111 G
b11111 K
b11111 F
b11111 R
b0 8
b11111 H
b11111 L
b11111110111000010100000000101010 `
b10001001110 ?
b10001001110 U
b10001001110 Y
b100000 2
b10111101011000110000000000000000 ;
b10111101011000110000000000000000 J
b1011110101100011 -
b1011110101100011 5
1*
#380000
0*
#385000
b1111110110011011 !
b1111110110011011 7
b1111110110011011 <
b1111110110011011 ^
b1111110110011011 Z
b1011100000 9
b11111110110011011111111011001000 `
b10010011000 ?
b10010011000 U
b10010011000 Y
b100000 G
b100000 K
b100000 F
b100000 R
b0 8
b100000 H
b100000 L
b100001 2
b1010010110110000000000000000 ;
b1010010110110000000000000000 J
b101001011011 -
b101001011011 5
1*
#390000
0*
#395000
b1101000100000 :
b1101000100000 W
b11111111 !
b11111111 7
b11111111 <
b11111111 ^
b11111111 Z
b1011100001 9
b11010001000000000000000000000 =
b11010001000000000000000000000 P
b100001 G
b100001 K
b100001 F
b100001 R
b0 8
b100001 H
b100001 L
b11111111100010010000000 `
b10011100100 ?
b10011100100 U
b10011100100 Y
b100010 2
b11010001000000000000000000000 ;
b11010001000000000000000000000 J
b1101000100000 -
b1101000100000 5
1*
#400000
0*
#405000
b100001111 !
b100001111 7
b100001111 <
b100001111 ^
b100001111 Z
b1011100010 9
b100001111011101001000000 `
b10100110010 ?
b10100110010 U
b10100110010 Y
b100010 G
b100010 K
b100010 F
b100010 R
b0 8
b100010 H
b100010 L
b100011 2
b11111101010000000000000000 ;
b11111101010000000000000000 J
b1111110101 -
b1111110101 5
1*
#410000
0*
#415000
b0 :
b0 W
b0 !
b0 7
b0 <
b0 ^
b0 Z
b1011100011 9
b0 =
b0 P
b100011 G
b100011 K
b100011 F
b100011 R
b0 8
b100011 H
b100011 L
b0 `
b10110000011 ?
b10110000011 U
b10110000011 Y
b100100 2
b0 ;
b0 J
b0 -
b0 5
1*
#420000
0*
#425000
b1011100100 9
b10111010110 ?
b10111010110 U
b10111010110 Y
b100100 G
b100100 K
b100100 F
b100100 R
b0 8
b100100 H
b100100 L
b100101 2
b11111100000010110000000000000000 ;
b11111100000010110000000000000000 J
b1111110000001011 -
b1111110000001011 5
1*
#430000
0*
#435000
b1111111010111101 !
b1111111010111101 7
b1111111010111101 <
b1111111010111101 ^
b1111111010111101 Z
b11111111010111101101110010100000 `
b1110010111100000 :
b1110010111100000 W
b1011100101 9
b11100101111000000000000000000000 =
b11100101111000000000000000000000 P
b100101 G
b100101 K
b100101 F
b100101 R
b0 8
b100101 H
b100101 L
b11000101011 ?
b11000101011 U
b11000101011 Y
b100110 2
b11100101111000000000000000000000 ;
b11100101111000000000000000000000 J
b1110010111100000 -
b1110010111100000 5
1*
#440000
0*
#445000
b1111111010101011 !
b1111111010101011 7
b1111111010101011 <
b1111111010101011 ^
b1111111010101011 Z
b1011100110 9
b11111111010101011111101111000000 `
b11010000010 ?
b11010000010 U
b11010000010 Y
b100110 G
b100110 K
b100110 F
b100110 R
b0 8
b100110 H
b100110 L
b100111 2
b11110101101001010000000000000000 ;
b11110101101001010000000000000000 J
b1111010110100101 -
b1111010110100101 5
1*
#450000
0*
#455000
b100001010011101 :
b100001010011101 W
b1110010001 !
b1110010001 7
b1110010001 <
b1110010001 ^
b1110010001 Z
b1011100111 9
b1000010100111010000000000000000 =
b1000010100111010000000000000000 P
b100111 G
b100111 K
b100111 F
b100111 R
b0 8
b100111 H
b100111 L
b1110010001110110011101100 `
b11011011100 ?
b11011011100 U
b11011011100 Y
b101000 2
b1000010100111010000000000000000 ;
b1000010100111010000000000000000 J
b100001010011101 -
b100001010011101 5
1*
#460000
0*
#465000
b1111000001 !
b1111000001 7
b1111000001 <
b1111000001 ^
b1111000001 Z
b1011101000 9
b1111000001101110101011000 `
b11100111000 ?
b11100111000 U
b11100111000 Y
b101000 G
b101000 K
b101000 F
b101000 R
b0 8
b101000 H
b101000 L
b101001 2
b1110011001100110000000000000000 ;
b1110011001100110000000000000000 J
b111001100110011 -
b111001100110011 5
1*
#470000
0*
#475000
b1111110010 !
b1111110010 7
b1111110010 <
b1111110010 ^
b1111110010 Z
b1011101001 9
b101001 G
b101001 K
b101001 F
b101001 R
b0 8
b101001 H
b101001 L
b1111110010101001011111110 `
b11110010110 ?
b11110010110 U
b11110010110 Y
b101010 2
b1000010100111010000000000000000 ;
b1000010100111010000000000000000 J
b100001010011101 -
b100001010011101 5
1*
#480000
0*
#485000
b10000100100 !
b10000100100 7
b10000100100 <
b10000100100 ^
b10000100100 Z
b1011101010 9
b10000100100100110111011110 `
b11111110110 ?
b11111110110 U
b11111110110 Y
b101010 G
b101010 K
b101010 F
b101010 R
b0 8
b101010 H
b101010 L
b101011 2
b11110101101001010000000000000000 ;
b11110101101001010000000000000000 J
b1111010110100101 -
b1111010110100101 5
1*
#490000
0*
#495000
b1110010111100000 :
b1110010111100000 W
b1111111001001011 !
b1111111001001011 7
b1111111001001011 <
b1111111001001011 ^
b1111111001001011 Z
b1011101011 9
b11100101111000000000000000000000 =
b11100101111000000000000000000000 P
b101011 G
b101011 K
b101011 F
b101011 R
b0 8
b101011 H
b101011 L
b11111111001001011110101011100000 `
b100001011001 ?
b100001011001 U
b100001011001 Y
b101100 2
b11100101111000000000000000000000 ;
b11100101111000000000000000000000 J
b1110010111100000 -
b1110010111100000 5
1*
#500000
0*
#505000
b1111111000110111 !
b1111111000110111 7
b1111111000110111 <
b1111111000110111 ^
b1111111000110111 Z
b1011101100 9
b11111111000110111011011001100000 `
b100010111101 ?
b100010111101 U
b100010111101 Y
b101100 G
b101100 K
b101100 F
b101100 R
b0 8
b101100 H
b101100 L
b101101 2
b11111100000010110000000000000000 ;
b11111100000010110000000000000000 J
b1111110000001011 -
b1111110000001011 5
1*
#510000
0*
#515000
b0 :
b0 W
b0 !
b0 7
b0 <
b0 ^
b0 Z
b1011101101 9
b0 =
b0 P
b101101 G
b101101 K
b101101 F
b101101 R
b0 8
b101101 H
b101101 L
b0 `
b100100100100 ?
b100100100100 U
b100100100100 Y
b101110 2
b0 ;
b0 J
b0 -
b0 5
1*
#520000
0*
#525000
b1011101110 9
b100110001101 ?
b100110001101 U
b100110001101 Y
b101110 G
b101110 K
b101110 F
b101110 R
b0 8
b101110 H
b101110 L
b101111 2
b11111101010000000000000000 ;
b11111101010000000000000000 J
b1111110101 -
b1111110101 5
1*
#530000
0*
#535000
b1000001000 !
b1000001000 7
b1000001000 <
b1000001000 ^
b1000001000 Z
b1000001000110111100000000 `
b1101000100000 :
b1101000100000 W
b1011101111 9
b11010001000000000000000000000 =
b11010001000000000000000000000 P
b101111 G
b101111 K
b101111 F
b101111 R
b0 8
b101111 H
b101111 L
b100111111000 ?
b100111111000 U
b100111111000 Y
b110000 2
b11010001000000000000000000000 ;
b11010001000000000000000000000 J
b1101000100000 -
b1101000100000 5
1*
#540000
0*
#545000
b1000011111 !
b1000011111 7
b1000011111 <
b1000011111 ^
b1000011111 Z
b1011110000 9
b1000011111000111010100000 `
b101001100101 ?
b101001100101 U
b101001100101 Y
b110000 G
b110000 K
b110000 F
b110000 R
b0 8
b110000 H
b110000 L
b110001 2
b1010010110110000000000000000 ;
b1010010110110000000000000000 J
b101001011011 -
b101001011011 5
1*
#550000
0*
#555000
b1011110101100011 :
b1011110101100011 W
b1111101001011101 !
b1111101001011101 7
b1111101001011101 <
b1111101001011101 ^
b1111101001011101 Z
b1011110001 9
b10111101011000110000000000000000 =
b10111101011000110000000000000000 P
b110001 G
b110001 K
b110001 F
b110001 R
b0 8
b110001 H
b110001 L
b11111101001011101011001111111100 `
b101011010100 ?
b101011010100 U
b101011010100 Y
b110010 2
b10111101011000110000000000000000 ;
b10111101011000110000000000000000 J
b1011110101100011 -
b1011110101100011 5
1*
#560000
0*
#565000
b1111101000100010 !
b1111101000100010 7
b1111101000100010 <
b1111101000100010 ^
b1111101000100010 Z
b1011110010 9
b11111101000100010100110010101111 `
b101101000101 ?
b101101000101 U
b101101000101 Y
b110010 G
b110010 K
b110010 F
b110010 R
b0 8
b110010 H
b110010 L
b110011 2
b10001100110011010000000000000000 ;
b10001100110011010000000000000000 J
b1000110011001101 -
b1000110011001101 5
1*
#570000
0*
#575000
b1111100111100110 !
b1111100111100110 7
b1111100111100110 <
b1111100111100110 ^
b1111100111100110 Z
b1011110011 9
b110011 G
b110011 K
b110011 F
b110011 R
b0 8
b110011 H
b110011 L
b11111100111100110110000000101000 `
b101110111000 ?
b101110111000 U
b101110111000 Y
b110100 2
b10111101011000110000000000000000 ;
b10111101011000110000000000000000 J
b1011110101100011 -
b1011110101100011 5
1*
#580000
0*
#585000
b1111100110101001 !
b1111100110101001 7
b1111100110101001 <
b1111100110101001 ^
b1111100110101001 Z
b1011110100 9
b11111100110101001110111001100111 `
b110000101101 ?
b110000101101 U
b110000101101 Y
b110100 G
b110100 K
b110100 F
b110100 R
b0 8
b110100 H
b110100 L
b110101 2
b1010010110110000000000000000 ;
b1010010110110000000000000000 J
b101001011011 -
b101001011011 5
1*
#590000
0*
#595000
b1101000100000 :
b1101000100000 W
b1010010100 !
b1010010100 7
b1010010100 <
b1010010100 ^
b1010010100 Z
b1011110101 9
b11010001000000000000000000000 =
b11010001000000000000000000000 P
b110101 G
b110101 K
b110101 F
b110101 R
b0 8
b110101 H
b110101 L
b1010010100011110010000000 `
b110010100100 ?
b110010100100 U
b110010100100 Y
b110110 2
b11010001000000000000000000000 ;
b11010001000000000000000000000 J
b1101000100000 -
b1101000100000 5
1*
#600000
0*
#605000
b1010101101 !
b1010101101 7
b1010101101 <
b1010101101 ^
b1010101101 Z
b1011110110 9
b1010101101010111111000000 `
b110100011110 ?
b110100011110 U
b110100011110 Y
b110110 G
b110110 K
b110110 F
b110110 R
b0 8
b110110 H
b110110 L
b110111 2
b11111101010000000000000000 ;
b11111101010000000000000000 J
b1111110101 -
b1111110101 5
1*
#610000
0*
#615000
b0 :
b0 W
b0 !
b0 7
b0 <
b0 ^
b0 Z
b1011110111 9
b0 =
b0 P
b110111 G
b110111 K
b110111 F
b110111 R
b0 8
b110111 H
b110111 L
b0 `
b110110011001 ?
b110110011001 U
b110110011001 Y
b111000 2
b0 ;
b0 J
b0 -
b0 5
1*
#620000
0*
#625000
b1011111000 9
b111000010110 ?
b111000010110 U
b111000010110 Y
b111000 G
b111000 K
b111000 F
b111000 R
b0 8
b111000 H
b111000 L
b111001 2
b11111100000010110000000000000000 ;
b11111100000010110000000000000000 J
b1111110000001011 -
b1111110000001011 5
1*
#630000
0*
#635000
b1111110100000110 !
b1111110100000110 7
b1111110100000110 <
b1111110100000110 ^
b1111110100000110 Z
b11111110100000110000101101100000 `
b1110010111100000 :
b1110010111100000 W
b1011111001 9
b11100101111000000000000000000000 =
b11100101111000000000000000000000 P
b111001 G
b111001 K
b111001 F
b111001 R
b0 8
b111001 H
b111001 L
b111010010101 ?
b111010010101 U
b111010010101 Y
b111010 2
b11100101111000000000000000000000 ;
b11100101111000000000000000000000 J
b1110010111100000 -
b1110010111100000 5
1*
#640000
0*
#645000
b1111110011101011 !
b1111110011101011 7
b1111110011101011 <
b1111110011101011 ^
b1111110011101011 Z
b1011111010 9
b11111110011101011110000101000000 `
b111100010110 ?
b111100010110 U
b111100010110 Y
b111010 G
b111010 K
b111010 F
b111010 R
b0 8
b111010 H
b111010 L
b111011 2
b11110101101001010000000000000000 ;
b11110101101001010000000000000000 J
b1111010110100101 -
b1111010110100101 5
1*
#650000
0*
#655000
b100001010011101 :
b100001010011101 W
b100000011110 !
b100000011110 7
b100000011110 <
b100000011110 ^
b100000011110 Z
b1011111011 9
b1000010100111010000000000000000 =
b1000010100111010000000000000000 P
b111011 G
b111011 K
b111011 F
b111011 R
b0 8
b111011 H
b111011 L
b100000011110000001011010101 `
b111110011001 ?
b111110011001 U
b111110011001 Y
b111100 2
b1000010100111010000000000000000 ;
b1000010100111010000000000000000 J
b100001010011101 -
b100001010011101 5
1*
#660000
0*
#665000
b100001100010 !
b100001100010 7
b100001100010 <
b100001100010 ^
b100001100010 Z
b1011111100 9
b100001100010101101111001001 `
b1000000011101 ?
b1000000011101 U
b1000000011101 Y
b111100 G
b111100 K
b111100 F
b111100 R
b0 8
b111100 H
b111100 L
b111101 2
b1110011001100110000000000000000 ;
b1110011001100110000000000000000 J
b111001100110011 -
b111001100110011 5
1*
#670000
0*
#675000
b100010101000 !
b100010101000 7
b100010101000 <
b100010101000 ^
b100010101000 Z
b1011111101 9
b111101 G
b111101 K
b111101 F
b111101 R
b0 8
b111101 H
b111101 L
b100010101000111110010010100 `
b1000010100100 ?
b1000010100100 U
b1000010100100 Y
b111110 2
b1000010100111010000000000000000 ;
b1000010100111010000000000000000 J
b100001010011101 -
b100001010011101 5
1*
#680000
0*
