win_lut_tc/tb_window_lut.vcd
$date
	Tue Nov 18 15:41:14 2025
$end
$version
	Icarus Verilog
$end
$timescale
	1ps
$end
$scope module tb_Window_lut $end
$var wire 16 ! dout_re [15:0] $end
$var wire 16 " dout_im [15:0] $end
$var wire 1 # dout_en $end
$var wire 1 $ data_full $end
$var wire 1 % data_empty $end
$var wire 9 & buf_count [8:0] $end
$var parameter 32 ' ADDR_WIDTH $end
$var parameter 41 ( BUF_DEPTH $end
$var parameter 32 ) CLK_PERIOD $end
$var parameter 32 * HOP_LEN $end
$var parameter 32 + N_FFT $end
$var parameter 32 , WIDTH $end
$var parameter 32 - WIN_LEN $end
$var reg 1 . clk $end
$var reg 1 / den $end
$var reg 16 0 din_im [15:0] $end
$var reg 16 1 din_re [15:0] $end
$var reg 1 2 dout_en_q $end
$var reg 1 3 rst_n $end
$var integer 32 4 frame_count [31:0] $end
$var integer 32 5 frame_len_violation_count [31:0] $end
$var integer 32 6 frame_log_file [31:0] $end
$var integer 32 7 frame_sample_counter [31:0] $end
$var integer 32 8 hop_violation_count [31:0] $end
$var integer 32 9 input_file [31:0] $end
$var integer 32 : output_file [31:0] $end
$var integer 32 ; prev_frame_start_sample [31:0] $end
$var integer 32 < sample_count [31:0] $end
$var integer 32 = scan_result [31:0] $end
$scope module dut $end
$var wire 1 . clk $end
$var wire 1 / den $end
$var wire 16 > din_im [15:0] $end
$var wire 16 ? din_re [15:0] $end
$var wire 16 @ dout_im [15:0] $end
$var wire 16 A dout_re [15:0] $end
$var wire 1 3 rst_n $end
$var wire 16 B mu_b_re [15:0] $end
$var wire 16 C mu_a_re [15:0] $end
$var wire 1 D frm_init $end
$var wire 16 E data_mu_re [15:0] $end
$var wire 32 F data_mu_in [31:0] $end
$var wire 16 G data_mu_im [15:0] $end
$var wire 1 $ data_full $end
$var wire 1 % data_empty $end
$var wire 32 H data_buf_in [31:0] $end
$var wire 16 I coe_mu_in [15:0] $end
$var wire 1 J buf_rd_jump $end
$var wire 1 K buf_rd_en $end
$var wire 9 L buf_count [8:0] $end
$var parameter 32 M ADDR_WIDTH $end
$var parameter 32 N BUF_DEPTH $end
$var parameter 32 O HOP_LEN $end
$var parameter 32 P N_FFT $end
$var parameter 32 Q WIDTH $end
$var parameter 32 R WIN_LEN $end
$var reg 1 # dout_en $end
$var reg 9 S r_idx_ptr [8:0] $end
$scope module CIRCULAR_BUFFER_inst $end
$var wire 1 . clk $end
$var wire 32 T din [31:0] $end
$var wire 1 D frm_init $end
$var wire 1 K rd_en $end
$var wire 1 J rd_jump $end
$var wire 1 3 rst_n $end
$var wire 1 / wr_en $end
$var wire 1 $ full $end
$var wire 1 % empty $end
$var wire 1 U almost_empty $end
$var parameter 32 V ADDR_WIDTH $end
$var parameter 32 W DEPTH $end
$var parameter 32 X HOP_LENGTH $end
$var parameter 64 Y WIDTH $end
$var parameter 32 Z WIN_LENGTH $end
$var reg 9 [ count_r [8:0] $end
$var reg 32 \ dout [31:0] $end
$var reg 9 ] init_read_ptr [8:0] $end
$var reg 9 ^ init_write_ptr [8:0] $end
$var reg 9 _ read_ptr [8:0] $end
$var reg 9 ` write_ptr [8:0] $end
$var integer 32 a i [31:0] $end
$scope function is_almost_empty $end
$var reg 9 b count_r [8:0] $end
$upscope $end
$scope function isempty $end
$var reg 9 c init_write_ptr [8:0] $end
$var reg 9 d read_ptr [8:0] $end
$var reg 9 e write_ptr [8:0] $end
$upscope $end
$scope function isfull $end
$var reg 9 f init_read_ptr [8:0] $end
$var reg 9 g read_ptr [8:0] $end
$var reg 9 h write_ptr [8:0] $end
$upscope $end
$upscope $end
$scope module HANN_WIN_inst $end
$var wire 9 i addr [8:0] $end
$var wire 1 . clk $end
$var wire 1 3 rst_n $end
$var parameter 32 j ADDR_WIDTH $end
$var parameter 32 k N_FFT $end
$var parameter 32 l WIN_LEN $end
$var reg 16 m win_coe_out [15:0] $end
$upscope $end
$scope module MU_inst $end
$var wire 16 n a_im [15:0] $end
$var wire 16 o a_re [15:0] $end
$var wire 16 p b_im [15:0] $end
$var wire 16 q b_re [15:0] $end
$var wire 16 r sc_arbr [15:0] $end
$var wire 16 s sc_arbi [15:0] $end
$var wire 16 t sc_aibr [15:0] $end
$var wire 16 u sc_aibi [15:0] $end
$var wire 16 v m_re [15:0] $end
$var wire 16 w m_im [15:0] $end
$var wire 32 x arbr [31:0] $end
$var wire 32 y arbi [31:0] $end
$var wire 32 z aibr [31:0] $end
$var wire 32 { aibi [31:0] $end
$var parameter 32 | WIDTH $end
$upscope $end
$upscope $end
$upscope $end
$enddefinitions $end
$comment Show the parameter values. $end
$dumpall
b10000 |
b111100000 l
b1000000000 k
b1001 j
b111100000 Z
b100000 Y
b10100000 X
b1000000000 W
b1001 V
b111100000 R
b10000 Q
b1000000000 P
b10100000 O
b1000000000 N
b1001 M
b111100000 -
b10000 ,
b1000000000 +
b10100000 *
b1010 )
b1000000000 (
b1001 '
$end
#0
$dumpvars
b0 {
bx z
bx y
bx x
bx w
bx v
b0 u
bx t
bx s
bx r
bx q
b0 p
bx o
b0 n
bx m
bx i
bx h
bx g
bx f
bx e
bx d
bx c
bx b
bx a
bx `
bx _
bx ^
bx ]
bx \
bx [
0U
b0 T
bx S
bx L
xK
xJ
bx I
b0 H
bx G
bx F
bx E
xD
bx C
bx B
bx A
bx @
b0 ?
b0 >
bx =
b0 <
b0 ;
b10000000000000000000000000000011 :
b0 9
b0 8
b0 7
b10000000000000000000000000000100 6
b0 5
b0 4
13
02
b0 1
b0 0
0/
0.
bx &
x%
x$
x#
bx "
bx !
$end
#5000
0K
b0 !
b0 A
b0 E
b0 v
b0 r
b0 "
b0 @
b0 G
b0 w
b0 s
b0 t
b0 x
b0 y
b0 C
b0 o
1%
1U
b0 b
0$
b0 f
b0 g
b0 h
0J
0D
b0 z
b0 B
b0 q
b0 `
b0 _
b0 &
b0 L
b0 [
b0 F
b0 \
b0 ^
b0 ]
b0 I
b0 m
b0 S
b0 i
0#
x2
b1000000000 a
03
1.
#10000
0.
#15000
02
b1000000000 a
1.
#20000
0.
#25000
b1000000000 a
1.
#30000
0.
#35000
b1000000000 a
1.
#40000
0.
#45000
b1000000000 a
1.
#50000
0.
#55000
1.
13
#60000
0.
#65000
1.
#70000
0.
#75000
1K
b1 b
b1 h
0%
b1 &
b1 L
b1 [
b1 `
1.
b10 <
b10 =
b1000010100111010000000000000000 H
b1000010100111010000000000000000 T
b100001010011101 1
b100001010011101 ?
1/
b10000000000000000000000000000101 9
#80000
0.
#85000
b100001010011101 C
b100001010011101 o
b1 g
b10 h
b10 `
b1 _
b1000010100111010000000000000000 F
b1000010100111010000000000000000 \
1#
b11 <
b11110101101001010000000000000000 H
b11110101101001010000000000000000 T
b1111010110100101 1
b1111010110100101 ?
1.
#90000
0.
#95000
b1111010110100101 C
b1111010110100101 o
b10 g
b11 h
b1 S
b1 i
b11110101101001010000000000000000 F
b11110101101001010000000000000000 \
b10 _
b11 `
12
b100 <
b11100101111000000000000000000000 H
b11100101111000000000000000000000 T
b1110010111100000 1
b1110010111100000 ?
1.
#100000
0.
#105000
b1111111111111111 !
b1111111111111111 A
b1111111111111111 E
b1111111111111111 v
b1111111111111111 r
b1110010111100000 C
b1110010111100000 o
b11 g
b100 h
b11111111111111111110010111100000 x
b1 B
b1 q
b100 `
b11 _
b11100101111000000000000000000000 F
b11100101111000000000000000000000 \
b1 I
b1 m
b10 S
b10 i
b101 <
b11111100000010110000000000000000 H
b11111100000010110000000000000000 T
b1111110000001011 1
b1111110000001011 ?
1.
#110000
0.
#115000
b1111110000001011 C
b1111110000001011 o
b11111111111111111110100001000010 x
b110 B
b110 q
b100 g
b101 h
b11 S
b11 i
b110 I
b110 m
b11111100000010110000000000000000 F
b11111100000010110000000000000000 \
b100 _
b101 `
b110 <
b0 H
b0 T
b0 1
b0 ?
1.
#120000
0.
#125000
b0 !
b0 A
b0 E
b0 v
b0 r
b0 C
b0 o
b101 g
b110 h
b0 x
b1101 B
b1101 q
b110 `
b101 _
b0 F
b0 \
b1101 I
b1101 m
b100 S
b100 i
b111 <
b11111101010000000000000000 H
b11111101010000000000000000 T
b1111110101 1
b1111110101 ?
1.
#130000
0.
#135000
b101101100000011 x
b1111110101 C
b1111110101 o
b10111 B
b10111 q
b110 g
b111 h
b101 S
b101 i
b10111 I
b10111 m
b11111101010000000000000000 F
b11111101010000000000000000 \
b110 _
b111 `
b1000 <
b11010001000000000000000000000 H
b11010001000000000000000000000 T
b1101000100000 1
b1101000100000 ?
1.
#140000
0.
#145000
b111 !
b111 A
b111 E
b111 v
b111 r
b1101000100000 C
b1101000100000 o
b111 g
b1000 h
b111001001001100000 x
b100011 B
b100011 q
b1000 `
b111 _
b11010001000000000000000000000 F
b11010001000000000000000000000 \
b100011 I
b100011 m
b110 S
b110 i
b1001 <
b1010010110110000000000000000 H
b1010010110110000000000000000 T
b101001011011 1
b101001011011 ?
1.
#150000
0.
#155000
b100 !
b100 A
b100 E
b100 v
b100 r
b101001011011 C
b101001011011 o
b100001000000100001 x
b110011 B
b110011 q
b1000 g
b1001 h
b111 S
b111 i
b110011 I
b110011 m
b1010010110110000000000000000 F
b1010010110110000000000000000 \
b1000 _
b1001 `
b1010 <
b10111101011000110000000000000000 H
b10111101011000110000000000000000 T
b1011110101100011 1
b1011110101100011 ?
1.
#160000
0.
#165000
b1111111111011100 !
b1111111111011100 A
b1111111111011100 E
b1111111111011100 v
b1111111111011100 r
b1011110101100011 C
b1011110101100011 o
b1001 g
b1010 h
b11111111111011100000101110101111 x
b1000101 B
b1000101 q
b1010 `
b1001 _
b10111101011000110000000000000000 F
b10111101011000110000000000000000 \
b1000101 I
b1000101 m
b1000 S
b1000 i
b1011 <
b10001100110011010000000000000000 H
b10001100110011010000000000000000 T
b1000110011001101 1
b1000110011001101 ?
1.
#170000
0.
#175000
b1111111110101111 !
b1111111110101111 A
b1111111110101111 E
b1111111110101111 v
b1111111110101111 r
b1000110011001101 C
b1000110011001101 o
b11111111110101111000000000010010 x
b1011010 B
b1011010 q
b1010 g
b1011 h
b1001 S
b1001 i
b1011010 I
b1011010 m
b10001100110011010000000000000000 F
b10001100110011010000000000000000 \
b1010 _
b1011 `
b1100 <
b10111101011000110000000000000000 H
b10111101011000110000000000000000 T
b1011110101100011 1
b1011110101100011 ?
1.
#180000
0.
#185000
b1111111111000100 !
b1111111111000100 A
b1111111111000100 E
b1111111111000100 v
b1111111111000100 r
b1011110101100011 C
b1011110101100011 o
b1011 g
b1100 h
b11111111111000100101011000010110 x
b1110010 B
b1110010 q
b1100 `
b1011 _
b10111101011000110000000000000000 F
b10111101011000110000000000000000 \
b1110010 I
b1110010 m
b1010 S
b1010 i
b1101 <
b1010010110110000000000000000 H
b1010010110110000000000000000 T
b101001011011 1
b101001011011 ?
1.
#190000
0.
#195000
b1011 !
b1011 A
b1011 E
b1011 v
b1011 r
b101001011011 C
b101001011011 o
b1011011010000011111 x
b10001101 B
b10001101 q
b1100 g
b1101 h
b1011 S
b1011 i
b10001101 I
b10001101 m
b1010010110110000000000000000 F
b1010010110110000000000000000 \
b1100 _
b1101 `
b1110 <
b11010001000000000000000000000 H
b11010001000000000000000000000 T
b1101000100000 1
b1101000100000 ?
1.
#200000
0.
#205000
b100010 !
b100010 A
b100010 E
b100010 v
b100010 r
b1101000100000 C
b1101000100000 o
b1101 g
b1110 h
b100010101100101000000 x
b10101010 B
b10101010 q
b1110 `
b1101 _
b11010001000000000000000000000 F
b11010001000000000000000000000 \
b10101010 I
b10101010 m
b1100 S
b1100 i
b1111 <
b11111101010000000000000000 H
b11111101010000000000000000 T
b1111110101 1
b1111110101 ?
1.
#210000
0.
#215000
b110 !
b110 A
b110 E
b110 v
b110 r
b1111110101 C
b1111110101 o
b110010001101000111 x
b11001011 B
b11001011 q
b1110 g
b1111 h
b1101 S
b1101 i
b11001011 I
b11001011 m
b11111101010000000000000000 F
b11111101010000000000000000 \
b1110 _
b1111 `
b10000 <
b0 H
b0 T
b0 1
b0 ?
1.
#220000
0.
#225000
b0 !
b0 A
b0 E
b0 v
b0 r
b0 C
b0 o
b1111 g
b10000 h
b0 x
b11101110 B
b11101110 q
b10000 `
b1111 _
b0 F
b0 \
b11101110 I
b11101110 m
b1110 S
b1110 i
b10001 <
b11111100000010110000000000000000 H
b11111100000010110000000000000000 T
b1111110000001011 1
b1111110000001011 ?
1.
#230000
0.
#235000
b1111111111110111 !
b1111111111110111 A
b1111111111110111 E
b1111111111110111 v
b1111111111110111 r
b11111111111110111011111111010001 x
b1111110000001011 C
b1111110000001011 o
b100010011 B
b100010011 q
b10000 g
b10001 h
b1111 S
b1111 i
b100010011 I
b100010011 m
b11111100000010110000000000000000 F
b11111100000010110000000000000000 \
b10000 _
b10001 `
b10010 <
b11100101111000000000000000000000 H
b11100101111000000000000000000000 T
b1110010111100000 1
b1110010111100000 ?
1.
#240000
0.
#245000
b1111111110111111 !
b1111111110111111 A
b1111111110111111 E
b1111111110111111 v
b1111111110111111 r
b1110010111100000 C
b1110010111100000 o
b10001 g
b10010 h
b11111111110111111100000010000000 x
b100111100 B
b100111100 q
b10010 `
b10001 _
b11100101111000000000000000000000 F
b11100101111000000000000000000000 \
b100111100 I
b100111100 m
b10000 S
b10000 i
b10011 <
b11110101101001010000000000000000 H
b11110101101001010000000000000000 T
b1111010110100101 1
b1111010110100101 ?
1.
#250000
0.
#255000
b1111111111100010 !
b1111111111100010 A
b1111111111100010 E
b1111111111100010 v
b1111111111100010 r
b1111010110100101 C
b1111010110100101 o
b11111111111100010111000000001000 x
b101101000 B
b101101000 q
b10010 g
b10011 h
b10001 S
b10001 i
b101101000 I
b101101000 m
b11110101101001010000000000000000 F
b11110101101001010000000000000000 \
b10010 _
b10011 `
b10100 <
b1000010100111010000000000000000 H
b1000010100111010000000000000000 T
b100001010011101 1
b100001010011101 ?
1.
#260000
0.
#265000
b11010011 !
b11010011 A
b11010011 E
b11010011 v
b11010011 r
b100001010011101 C
b100001010011101 o
b10011 g
b10100 h
b11010011010010011111110 x
b110010110 B
b110010110 q
b10100 `
b10011 _
b1000010100111010000000000000000 F
b1000010100111010000000000000000 \
b110010110 I
b110010110 m
b10010 S
b10010 i
b10101 <
b1110011001100110000000000000000 H
b1110011001100110000000000000000 T
b111001100110011 1
b111001100110011 ?
1.
#270000
0.
#275000
b110011001 !
b110011001 A
b110011001 E
b110011001 v
b110011001 r
b111001100110011 C
b111001100110011 o
b110011001011111110100101 x
b111000111 B
b111000111 q
b10100 g
b10101 h
b10011 S
b10011 i
b111000111 I
b111000111 m
b1110011001100110000000000000000 F
b1110011001100110000000000000000 \
b10100 _
b10101 `
b10110 <
b1000010100111010000000000000000 H
b1000010100111010000000000000000 T
b100001010011101 1
b100001010011101 ?
1.
#280000
0.
#285000
b100000111 !
b100000111 A
b100000111 E
b100000111 v
b100000111 r
b100001010011101 C
b100001010011101 o
b10101 g
b10110 h
b100000111010101001010010 x
b111111010 B
b111111010 q
b10110 `
b10101 _
b1000010100111010000000000000000 F
b1000010100111010000000000000000 \
b111111010 I
b111111010 m
b10100 S
b10100 i
b10111 <
b11110101101001010000000000000000 H
b11110101101001010000000000000000 T
b1111010110100101 1
b1111010110100101 ?
1.
#290000
0.
#295000
b1111111111010010 !
b1111111111010010 A
b1111111111010010 E
b1111111111010010 v
b1111111111010010 r
b1111010110100101 C
b1111010110100101 o
b11111111111010010100111010010101 x
b1000110001 B
b1000110001 q
b10110 g
b10111 h
b10101 S
b10101 i
b1000110001 I
b1000110001 m
b11110101101001010000000000000000 F
b11110101101001010000000000000000 \
b10110 _
b10111 `
b11000 <
b11100101111000000000000000000000 H
b11100101111000000000000000000000 T
b1110010111100000 1
b1110010111100000 ?
1.
#300000
0.
#305000
b1111111110000001 !
b1111111110000001 A
b1111111110000001 E
b1111111110000001 v
b1111111110000001 r
b1110010111100000 C
b1110010111100000 o
b10111 g
b11000 h
b11111111110000001110111011000000 x
b1001101010 B
b1001101010 q
b11000 `
b10111 _
b11100101111000000000000000000000 F
b11100101111000000000000000000000 \
b1001101010 I
b1001101010 m
b10110 S
b10110 i
b11001 <
b11111100000010110000000000000000 H
b11111100000010110000000000000000 T
b1111110000001011 1
b1111110000001011 ?
1.
#310000
0.
#315000
b1111111111101011 !
b1111111111101011 A
b1111111111101011 E
b1111111111101011 v
b1111111111101011 r
b1111110000001011 C
b1111110000001011 o
b11111111111101011000100100010111 x
b1010100101 B
b1010100101 q
b11000 g
b11001 h
b10111 S
b10111 i
b1010100101 I
b1010100101 m
b11111100000010110000000000000000 F
b11111100000010110000000000000000 \
b11000 _
b11001 `
b11010 <
b0 H
b0 T
b0 1
b0 ?
1.
#320000
0.
#325000
b0 !
b0 A
b0 E
b0 v
b0 r
b0 C
b0 o
b11001 g
b11010 h
b0 x
b1011100100 B
b1011100100 q
b11010 `
b11001 _
b0 F
b0 \
b1011100100 I
b1011100100 m
b11000 S
b11000 i
b11011 <
b11111101010000000000000000 H
b11111101010000000000000000 T
b1111110101 1
b1111110101 ?
1.
#330000
0.
#335000
b11000 !
b11000 A
b11000 E
b11000 v
b11000 r
b11000111000101101001 x
b1111110101 C
b1111110101 o
b1100100101 B
b1100100101 q
b11010 g
b11011 h
b11001 S
b11001 i
b1100100101 I
b1100100101 m
b11111101010000000000000000 F
b11111101010000000000000000 \
b11010 _
b11011 `
b11100 <
b11010001000000000000000000000 H
b11010001000000000000000000000 T
b1101000100000 1
b1101000100000 ?
1.
#340000
0.
#345000
b10110010 !
b10110010 A
b10110010 E
b10110010 v
b10110010 r
b1101000100000 C
b1101000100000 o
b11011 g
b11100 h
b10110010001011100100000 x
b1101101001 B
b1101101001 q
b11100 `
b11011 _
b11010001000000000000000000000 F
b11010001000000000000000000000 \
b1101101001 I
b1101101001 m
b11010 S
b11010 i
b11101 <
b1010010110110000000000000000 H
b1010010110110000000000000000 T
b101001011011 1
b101001011011 ?
1.
#350000
0.
#355000
b1001100 !
b1001100 A
b1001100 E
b1001100 v
b1001100 r
b101001011011 C
b101001011011 o
b1001100010111110010000 x
b1110110000 B
b1110110000 q
b11100 g
b11101 h
b11011 S
b11011 i
b1110110000 I
b1110110000 m
b1010010110110000000000000000 F
b1010010110110000000000000000 \
b11100 _
b11101 `
b11110 <
b10111101011000110000000000000000 H
b10111101011000110000000000000000 T
b1011110101100011 1
b1011110101100011 ?
1.
#360000
0.
#365000
b1111110111101110 !
b1111110111101110 A
b1111110111101110 E
b1111110111101110 v
b1111110111101110 r
b1011110101100011 C
b1011110101100011 o
b11101 g
b11110 h
b11111110111101110101111001001011 x
b1111111001 B
b1111111001 q
b11110 `
b11101 _
b10111101011000110000000000000000 F
b10111101011000110000000000000000 \
b1111111001 I
b1111111001 m
b11100 S
b11100 i
b11111 <
b10001100110011010000000000000000 H
b10001100110011010000000000000000 T
b1000110011001101 1
b1000110011001101 ?
1.
#370000
0.
#375000
b1111110000101000 !
b1111110000101000 A
b1111110000101000 E
b1111110000101000 v
b1111110000101000 r
b1000110011001101 C
b1000110011001101 o
b11111110000101000010011101000001 x
b10001000101 B
b10001000101 q
b11110 g
b11111 h
b11101 S
b11101 i
b10001000101 I
b10001000101 m
b10001100110011010000000000000000 F
b10001100110011010000000000000000 \
b11110 _
b11111 `
b100000 <
b10111101011000110000000000000000 H
b10111101011000110000000000000000 T
b1011110101100011 1
b1011110101100011 ?
1.
#380000
0.
#385000
b1111110110011110 !
b1111110110011110 A
b1111110110011110 E
b1111110110011110 v
b1111110110011110 r
b1011110101100011 C
b1011110101100011 o
b11111 g
b100000 h
b11111110110011110100101111011001 x
b10010010011 B
b10010010011 q
b100000 `
b11111 _
b10111101011000110000000000000000 F
b10111101011000110000000000000000 \
b10010010011 I
b10010010011 m
b11110 S
b11110 i
b100001 <
b1010010110110000000000000000 H
b1010010110110000000000000000 T
b101001011011 1
b101001011011 ?
1.
#390000
0.
#395000
b1100101 !
b1100101 A
b1100101 E
b1100101 v
b1100101 r
b101001011011 C
b101001011011 o
b1100101010010100001100 x
b10011100100 B
b10011100100 q
b100000 g
b100001 h
b11111 S
b11111 i
b10011100100 I
b10011100100 m
b1010010110110000000000000000 F
b1010010110110000000000000000 \
b100000 _
b100001 `
b100010 <
b11010001000000000000000000000 H
b11010001000000000000000000000 T
b1101000100000 1
b1101000100000 ?
1.
#400000
0.
#405000
b100010000 !
b100010000 A
b100010000 E
b100010000 v
b100010000 r
b1101000100000 C
b1101000100000 o
b100001 g
b100010 h
b100010000101011100000000 x
b10100111000 B
b10100111000 q
b100010 `
b100001 _
b11010001000000000000000000000 F
b11010001000000000000000000000 \
b10100111000 I
b10100111000 m
b100000 S
b100000 i
b100011 <
b11111101010000000000000000 H
b11111101010000000000000000 T
b1111110101 1
b1111110101 ?
1.
#410000
0.
#415000
b101011 !
b101011 A
b101011 E
b101011 v
b101011 r
b1111110101 C
b1111110101 o
b101011111101011100110 x
b10110001110 B
b10110001110 q
b100010 g
b100011 h
b100001 S
b100001 i
b10110001110 I
b10110001110 m
b11111101010000000000000000 F
b11111101010000000000000000 \
b100010 _
b100011 `
b100100 <
b0 H
b0 T
b0 1
b0 ?
1.
#420000
0.
#425000
b0 !
b0 A
b0 E
b0 v
b0 r
b0 C
b0 o
b100011 g
b100100 h
b0 x
b10111100111 B
b10111100111 q
b100100 `
b100011 _
b0 F
b0 \
b10111100111 I
b10111100111 m
b100010 S
b100010 i
b100101 <
b11111100000010110000000000000000 H
b11111100000010110000000000000000 T
b1111110000001011 1
b1111110000001011 ?
1.
#430000
0.
#435000
b1111111111001110 !
b1111111111001110 A
b1111111111001110 E
b1111111111001110 v
b1111111111001110 r
b11111111111001110011100011100001 x
b1111110000001011 C
b1111110000001011 o
b11001000011 B
b11001000011 q
b100100 g
b100101 h
b100011 S
b100011 i
b11001000011 I
b11001000011 m
b11111100000010110000000000000000 F
b11111100000010110000000000000000 \
b100100 _
b100101 `
b100110 <
b11100101111000000000000000000000 H
b11100101111000000000000000000000 T
b1110010111100000 1
b1110010111100000 ?
1.
#440000
0.
#445000
b1111111010100101 !
b1111111010100101 A
b1111111010100101 E
b1111111010100101 v
b1111111010100101 r
b1110010111100000 C
b1110010111100000 o
b100101 g
b100110 h
b11111111010100101101000111100000 x
b11010100001 B
b11010100001 q
b100110 `
b100101 _
b11100101111000000000000000000000 F
b11100101111000000000000000000000 \
b11010100001 I
b11010100001 m
b100100 S
b100100 i
b100111 <
b11110101101001010000000000000000 H
b11110101101001010000000000000000 T
b1111010110100101 1
b1111010110100101 ?
1.
#450000
0.
#455000
b1111111101101110 !
b1111111101101110 A
b1111111101101110 E
b1111111101101110 v
b1111111101101110 r
b1111010110100101 C
b1111010110100101 o
b11111111101101110111100010100101 x
b11100000001 B
b11100000001 q
b100110 g
b100111 h
b100101 S
b100101 i
b11100000001 I
b11100000001 m
b11110101101001010000000000000000 F
b11110101101001010000000000000000 \
b100110 _
b100111 `
b101000 <
b1000010100111010000000000000000 H
b1000010100111010000000000000000 T
b100001010011101 1
b100001010011101 ?
1.
#460000
0.
#465000
b1111011000 !
b1111011000 A
b1111011000 E
b1111011000 v
b1111011000 r
b100001010011101 C
b100001010011101 o
b100111 g
b101000 h
b1111011000101000001010100 x
b11101100100 B
b11101100100 q
b101000 `
b100111 _
b1000010100111010000000000000000 F
b1000010100111010000000000000000 \
b11101100100 I
b11101100100 m
b100110 S
b100110 i
b101001 <
b1110011001100110000000000000000 H
b1110011001100110000000000000000 T
b111001100110011 1
b111001100110011 ?
1.
#470000
0.
#475000
b11100000010 !
b11100000010 A
b11100000010 E
b11100000010 v
b11100000010 r
b111001100110011 C
b111001100110011 o
b11100000010100101100111110 x
b11111001010 B
b11111001010 q
b101000 g
b101001 h
b100111 S
b100111 i
b11111001010 I
b11111001010 m
b1110011001100110000000000000000 F
b1110011001100110000000000000000 \
b101000 _
b101001 `
b101010 <
b1000010100111010000000000000000 H
b1000010100111010000000000000000 T
b100001010011101 1
b100001010011101 ?
1.
#480000
0.
#485000
b10001000011 !
b10001000011 A
b10001000011 E
b10001000011 v
b10001000011 r
b100001010011101 C
b100001010011101 o
b101001 g
b101010 h
b10001000011110101010101010 x
b100000110010 B
b100000110010 q
b101010 `
b101001 _
b1000010100111010000000000000000 F
b1000010100111010000000000000000 \
b100000110010 I
b100000110010 m
b101000 S
b101000 i
b101011 <
b11110101101001010000000000000000 H
b11110101101001010000000000000000 T
b1111010110100101 1
b1111010110100101 ?
1.
#490000
0.
#495000
b1111111101001101 !
b1111111101001101 A
b1111111101001101 E
b1111111101001101 v
b1111111101001101 r
b1111010110100101 C
b1111010110100101 o
b11111111101001101101100010001100 x
b100010011100 B
b100010011100 q
b101010 g
b101011 h
b101001 S
b101001 i
b100010011100 I
b100010011100 m
b11110101101001010000000000000000 F
b11110101101001010000000000000000 \
b101010 _
b101011 `
b101100 <
b11100101111000000000000000000000 H
b11100101111000000000000000000000 T
b1110010111100000 1
b1110010111100000 ?
1.
#500000
0.
#505000
b1111111000100111 !
b1111111000100111 A
b1111111000100111 E
b1111111000100111 v
b1111111000100111 r
b1110010111100000 C
b1110010111100000 o
b101011 g
b101100 h
b11111111000100111111010011100000 x
b100100001001 B
b100100001001 q
b101100 `
b101011 _
b11100101111000000000000000000000 F
b11100101111000000000000000000000 \
b100100001001 I
b100100001001 m
b101010 S
b101010 i
b101101 <
b11111100000010110000000000000000 H
b11111100000010110000000000000000 T
b1111110000001011 1
b1111110000001011 ?
1.
#510000
0.
#515000
b1111111110110101 !
b1111111110110101 A
b1111111110110101 E
b1111111110110101 v
b1111111110110101 r
b1111110000001011 C
b1111110000001011 o
b11111111110110101000100000101000 x
b100101111000 B
b100101111000 q
b101100 g
b101101 h
b101011 S
b101011 i
b100101111000 I
b100101111000 m
b11111100000010110000000000000000 F
b11111100000010110000000000000000 \
b101100 _
b101101 `
b101110 <
b0 H
b0 T
b0 1
b0 ?
1.
#520000
0.
#525000
b0 !
b0 A
b0 E
b0 v
b0 r
b0 C
b0 o
b101101 g
b101110 h
b0 x
b100111101010 B
b100111101010 q
b101110 `
b101101 _
b0 F
b0 \
b100111101010 I
b100111101010 m
b101100 S
b101100 i
b101111 <
b11111101010000000000000000 H
b11111101010000000000000000 T
b1111110101 1
b1111110101 ?
1.
#530000
0.
#535000
b1010010 !
b1010010 A
b1010010 E
b1010010 v
b1010010 r
b1010010000010111110110 x
b1111110101 C
b1111110101 o
b101001011110 B
b101001011110 q
b101110 g
b101111 h
b101101 S
b101101 i
b101001011110 I
b101001011110 m
b11111101010000000000000000 F
b11111101010000000000000000 \
b101110 _
b101111 `
b110000 <
b11010001000000000000000000000 H
b11010001000000000000000000000 T
b1101000100000 1
b1101000100000 ?
1.
#540000
0.
#545000
b1000110101 !
b1000110101 A
b1000110101 E
b1000110101 v
b1000110101 r
b1101000100000 C
b1101000100000 o
b101111 g
b110000 h
b1000110101110001010000000 x
b101011010100 B
b101011010100 q
b110000 `
b101111 _
b11010001000000000000000000000 F
b11010001000000000000000000000 \
b101011010100 I
b101011010100 m
b101110 S
b101110 i
b110001 <
b1010010110110000000000000000 H
b1010010110110000000000000000 T
b101001011011 1
b101001011011 ?
1.
#550000
0.
#555000
b11101010 !
b11101010 A
b11101010 E
b11101010 v
b11101010 r
b101001011011 C
b101001011011 o
b11101010000011001011111 x
b101101001101 B
b101101001101 q
b110000 g
b110001 h
b101111 S
b101111 i
b101101001101 I
b101101001101 m
b1010010110110000000000000000 F
b1010010110110000000000000000 \
b110000 _
b110001 `
b110010 <
b10111101011000110000000000000000 H
b10111101011000110000000000000000 T
b1011110101100011 1
b1011110101100011 ?
1.
#560000
0.
#565000
b1111100111011110 !
b1111100111011110 A
b1111100111011110 E
b1111100111011110 v
b1111100111011110 r
b1011110101100011 C
b1011110101100011 o
b110001 g
b110010 h
b11111100111011110011011001011000 x
b101111001000 B
b101111001000 q
b110010 `
b110001 _
b10111101011000110000000000000000 F
b10111101011000110000000000000000 \
b101111001000 I
b101111001000 m
b110000 S
b110000 i
b110011 <
b10001100110011010000000000000000 H
b10001100110011010000000000000000 T
b1000110011001101 1
b1000110011001101 ?
1.
#570000
0.
#575000
b1111010011110100 !
b1111010011110100 A
b1111010011110100 E
b1111010011110100 v
b1111010011110100 r
b1000110011001101 C
b1000110011001101 o
b11111010011110100001110000001110 x
b110001000110 B
b110001000110 q
b110010 g
b110011 h
b110001 S
b110001 i
b110001000110 I
b110001000110 m
b10001100110011010000000000000000 F
b10001100110011010000000000000000 \
b110010 _
b110011 `
b110100 <
b10111101011000110000000000000000 H
b10111101011000110000000000000000 T
b1011110101100011 1
b1011110101100011 ?
1.
#580000
0.
#585000
b1111100101011010 !
b1111100101011010 A
b1111100101011010 E
b1111100101011010 v
b1111100101011010 r
b1011110101100011 C
b1011110101100011 o
b110011 g
b110100 h
b11111100101011010110000100101111 x
b110011000101 B
b110011000101 q
b110100 `
b110011 _
b10111101011000110000000000000000 F
b10111101011000110000000000000000 \
b110011000101 I
b110011000101 m
b110010 S
b110010 i
b110101 <
b1010010110110000000000000000 H
b1010010110110000000000000000 T
b101001011011 1
b101001011011 ?
1.
#590000
0.
#595000
b100010010 !
b100010010 A
b100010010 E
b100010010 v
b100010010 r
b101001011011 C
b101001011011 o
b100010010111111000111101 x
b110101000111 B
b110101000111 q
b110100 g
b110101 h
b110011 S
b110011 i
b110101000111 I
b110101000111 m
b1010010110110000000000000000 F
b1010010110110000000000000000 \
b110100 _
b110101 `
b110110 <
b11010001000000000000000000000 H
b11010001000000000000000000000 T
b1101000100000 1
b1101000100000 ?
1.
#600000
0.
